<?xml version="1.0" encoding="utf-8"?>
<!-- Generator: Adobe Illustrator 23.0.1, SVG Export Plug-In . SVG Version: 6.00 Build 0)  -->
<svg version="1.1" id="Layer_1" xmlns="http://www.w3.org/2000/svg" xmlns:xlink="http://www.w3.org/1999/xlink" x="0px" y="0px"
	 viewBox="0 0 280.4 33.3" style="enable-background:new 0 0 280.4 33.3;" xml:space="preserve">
<style type="text/css">
	.st0{fill:#3D3935;}
	.st1{fill:#726F6C;}
	.st2{fill:none;stroke:#726F6C;stroke-miterlimit:10;}
</style>
<path class="st0" d="M102.7,32l4.7-22.2c0,0,0.3-1.9,1.8-1.9h6.8c2,0,3.6-0.6,4.3-2.6l1.1-5.2H46.1c-1.6,0-6,0.4-8.6,6
	c-2.5,5.6,0,8.5,2.1,9.8l11,6.2c1.3,0.6,1.3,2.4-0.1,2.4H33.2C32,16.5,29.9,0,29.9,0h-6.1c-5.4,0-6.6,1.6-8.2,3.9L0,32h9.1
	C10.2,30,20.3,12,20.3,12c1-1.8,2.1-1.9,2.1-1.7l2.2,19.8c0.2,1,0.4,1.9,2,1.8h25c3,0,6.6-0.1,8.6-6.4c1.6-4.9-0.1-7.8-2.1-8.9
	c-3.2-1.8-11.4-6.4-11.4-6.4C45.7,9.8,46,7.9,48,7.9h21.2l-4.3,20.2c-0.6,2.6,1.5,3.9,3.3,3.9h17.1c1.4,0,2.1-0.4,2.5-2.1l1.2-5.5
	H76.2c-2.4,0-2-1.6-1.7-2.8l0.5-2.4l11.3,0c1.1,0,2-0.1,2.4-1.9l0.7-3.7h-11c-1.9,0-2-1.3-1.7-2.4l0.6-3.2h20.4
	c1.1,0,1.7,0.9,1.5,1.6L94.5,32H102.7z"/>
<polygon class="st1" points="13.2,32 21.3,32 19.9,19.4 "/>
<line class="st2" x1="139.3" y1="0" x2="139.3" y2="33.3"/>
<path class="st0" d="M158.3,8.6V3.3h-1.6V2.2h4.2v1.1h-1.6v5.4H158.3z"/>
<path class="st0" d="M161.6,8.6V2.2h1.1v2.5h2.1V2.2h1.1v6.4h-1.1V5.8h-2.1v2.8H161.6z"/>
<path class="st0" d="M166.9,8.6V2.2h3.9v1.1H168v1.4h2.7v1.1H168v1.7h3v1.1H166.9z"/>
<path class="st0" d="M178.4,8.6h-1.2l-0.5-1.5h-2.1l-0.4,1.5h-1.1l2.1-6.4h1.1L178.4,8.6z M176.4,6.1l-0.7-2.4L175,6.1H176.4z"/>
<path class="st0" d="M178.7,6.5l1-0.1c0.1,0.8,0.5,1.2,1.2,1.2c0.3,0,0.6-0.1,0.8-0.3c0.2-0.2,0.3-0.4,0.3-0.6c0-0.1,0-0.3-0.1-0.4
	s-0.2-0.2-0.3-0.3c-0.1-0.1-0.5-0.2-1-0.3c-0.5-0.1-0.8-0.3-1-0.4c-0.2-0.2-0.4-0.4-0.5-0.6c-0.1-0.3-0.2-0.5-0.2-0.8
	c0-0.4,0.1-0.7,0.2-0.9c0.2-0.3,0.4-0.5,0.7-0.6c0.3-0.1,0.6-0.2,1-0.2c0.6,0,1.1,0.2,1.5,0.5s0.5,0.8,0.6,1.4l-1.1,0.1
	c0-0.3-0.1-0.6-0.3-0.7s-0.4-0.2-0.7-0.2s-0.5,0.1-0.7,0.2s-0.2,0.3-0.2,0.4c0,0.2,0.1,0.3,0.2,0.4s0.5,0.3,1,0.4
	c0.5,0.2,0.9,0.3,1.2,0.5c0.2,0.2,0.4,0.4,0.5,0.7s0.2,0.6,0.2,1c0,0.6-0.2,1-0.5,1.4c-0.3,0.4-0.9,0.6-1.6,0.6
	C179.5,8.8,178.8,8,178.7,6.5z"/>
<path class="st0" d="M183.6,6.5l1-0.1c0.1,0.8,0.5,1.2,1.2,1.2c0.3,0,0.6-0.1,0.8-0.3c0.2-0.2,0.3-0.4,0.3-0.6c0-0.1,0-0.3-0.1-0.4
	s-0.2-0.2-0.3-0.3c-0.1-0.1-0.5-0.2-1-0.3c-0.5-0.1-0.8-0.3-1-0.4c-0.2-0.2-0.4-0.4-0.5-0.6c-0.1-0.3-0.2-0.5-0.2-0.8
	c0-0.4,0.1-0.7,0.2-0.9c0.2-0.3,0.4-0.5,0.7-0.6c0.3-0.1,0.6-0.2,1-0.2c0.6,0,1.1,0.2,1.5,0.5s0.5,0.8,0.6,1.4l-1.1,0.1
	c0-0.3-0.1-0.6-0.3-0.7s-0.4-0.2-0.7-0.2s-0.5,0.1-0.7,0.2s-0.2,0.3-0.2,0.4c0,0.2,0.1,0.3,0.2,0.4s0.5,0.3,1,0.4
	c0.5,0.2,0.9,0.3,1.2,0.5c0.2,0.2,0.4,0.4,0.5,0.7s0.2,0.6,0.2,1c0,0.6-0.2,1-0.5,1.4c-0.3,0.4-0.9,0.6-1.6,0.6
	C184.5,8.8,183.7,8,183.6,6.5z"/>
<path class="st0" d="M188.6,5.5c0-0.8,0.1-1.4,0.3-1.9c0.2-0.5,0.5-0.9,0.9-1.1s0.8-0.4,1.3-0.4c0.8,0,1.4,0.3,1.8,0.9
	c0.5,0.6,0.7,1.4,0.7,2.5c0,1.1-0.3,1.9-0.8,2.5c-0.4,0.5-1,0.8-1.8,0.8c-0.8,0-1.4-0.3-1.8-0.8C188.8,7.4,188.6,6.5,188.6,5.5z
	 M189.7,5.4c0,0.7,0.1,1.3,0.4,1.7c0.3,0.4,0.6,0.6,1,0.6c0.4,0,0.8-0.2,1-0.6c0.3-0.4,0.4-0.9,0.4-1.7c0-0.7-0.1-1.3-0.4-1.7
	s-0.6-0.5-1.1-0.5c-0.4,0-0.8,0.2-1.1,0.5C189.8,4.1,189.7,4.7,189.7,5.4z"/>
<path class="st0" d="M197.9,6.3l1,0.4c-0.2,0.7-0.4,1.2-0.8,1.6s-0.8,0.5-1.4,0.5c-0.7,0-1.2-0.3-1.7-0.8c-0.5-0.6-0.7-1.4-0.7-2.5
	c0-1.1,0.2-2,0.7-2.6c0.4-0.5,1-0.8,1.7-0.8c0.6,0,1.1,0.2,1.5,0.6c0.3,0.3,0.5,0.7,0.6,1.3l-1.1,0.3c-0.1-0.3-0.2-0.6-0.4-0.8
	s-0.4-0.3-0.7-0.3c-0.4,0-0.7,0.2-1,0.5c-0.2,0.3-0.4,0.9-0.4,1.7c0,0.8,0.1,1.4,0.4,1.7s0.6,0.5,0.9,0.5c0.3,0,0.5-0.1,0.7-0.3
	C197.7,7.1,197.8,6.7,197.9,6.3z"/>
<path class="st0" d="M199.8,8.6V2.2h1.1v6.4H199.8z"/>
<path class="st0" d="M206.7,8.6h-1.2l-0.5-1.5h-2.1l-0.4,1.5h-1.1l2.1-6.4h1.1L206.7,8.6z M204.7,6.1L204,3.7l-0.7,2.4H204.7z"/>
<path class="st0" d="M207.9,8.6V3.3h-1.6V2.2h4.2v1.1h-1.6v5.4H207.9z"/>
<path class="st0" d="M211.2,8.6V2.2h1.1v6.4H211.2z"/>
<path class="st0" d="M213,5.5c0-0.8,0.1-1.4,0.3-1.9c0.2-0.5,0.5-0.9,0.9-1.1s0.8-0.4,1.3-0.4c0.8,0,1.4,0.3,1.8,0.9
	c0.5,0.6,0.7,1.4,0.7,2.5c0,1.1-0.3,1.9-0.8,2.5c-0.4,0.5-1,0.8-1.8,0.8c-0.8,0-1.4-0.3-1.8-0.8C213.3,7.4,213,6.5,213,5.5z
	 M214.1,5.4c0,0.7,0.1,1.3,0.4,1.7c0.3,0.4,0.6,0.6,1,0.6c0.4,0,0.8-0.2,1-0.6c0.3-0.4,0.4-0.9,0.4-1.7c0-0.7-0.1-1.3-0.4-1.7
	s-0.6-0.5-1.1-0.5c-0.4,0-0.8,0.2-1.1,0.5C214.3,4.1,214.1,4.7,214.1,5.4z"/>
<path class="st0" d="M219,8.6V2.2h1l2.2,4.3V2.2h1v6.4h-1.1L220,4.4v4.2H219z"/>
<path class="st0" d="M226.2,5.5c0-0.8,0.1-1.4,0.3-1.9c0.2-0.5,0.5-0.9,0.9-1.1s0.8-0.4,1.3-0.4c0.8,0,1.4,0.3,1.8,0.9
	c0.5,0.6,0.7,1.4,0.7,2.5c0,1.1-0.3,1.9-0.8,2.5c-0.4,0.5-1,0.8-1.8,0.8c-0.8,0-1.4-0.3-1.8-0.8C226.4,7.4,226.2,6.5,226.2,5.5z
	 M227.3,5.4c0,0.7,0.1,1.3,0.4,1.7c0.3,0.4,0.6,0.6,1,0.6c0.4,0,0.8-0.2,1-0.6c0.3-0.4,0.4-0.9,0.4-1.7c0-0.7-0.1-1.3-0.4-1.7
	s-0.6-0.5-1.1-0.5c-0.4,0-0.8,0.2-1.1,0.5C227.4,4.1,227.3,4.7,227.3,5.4z"/>
<path class="st0" d="M232.1,8.6V2.2h3.6v1.1h-2.6v1.5h2.2v1.1h-2.2v2.7H232.1z"/>
<path class="st0" d="M238.4,6.5l1-0.1c0.1,0.8,0.5,1.2,1.2,1.2c0.3,0,0.6-0.1,0.8-0.3c0.2-0.2,0.3-0.4,0.3-0.6c0-0.1,0-0.3-0.1-0.4
	s-0.2-0.2-0.3-0.3c-0.1-0.1-0.5-0.2-1-0.3c-0.5-0.1-0.8-0.3-1-0.4c-0.2-0.2-0.4-0.4-0.5-0.6c-0.1-0.3-0.2-0.5-0.2-0.8
	c0-0.4,0.1-0.7,0.2-0.9c0.2-0.3,0.4-0.5,0.7-0.6c0.3-0.1,0.6-0.2,1-0.2c0.6,0,1.1,0.2,1.5,0.5s0.5,0.8,0.6,1.4l-1.1,0.1
	c0-0.3-0.1-0.6-0.3-0.7s-0.4-0.2-0.7-0.2s-0.5,0.1-0.7,0.2s-0.2,0.3-0.2,0.4c0,0.2,0.1,0.3,0.2,0.4s0.5,0.3,1,0.4
	c0.5,0.2,0.9,0.3,1.2,0.5c0.2,0.2,0.4,0.4,0.5,0.7s0.2,0.6,0.2,1c0,0.6-0.2,1-0.5,1.4c-0.3,0.4-0.9,0.6-1.6,0.6
	C239.3,8.8,238.6,8,238.4,6.5z"/>
<path class="st0" d="M247,6.3l1,0.4c-0.2,0.7-0.4,1.2-0.8,1.6s-0.8,0.5-1.4,0.5c-0.7,0-1.2-0.3-1.7-0.8c-0.5-0.6-0.7-1.4-0.7-2.5
	c0-1.1,0.2-2,0.7-2.6c0.4-0.5,1-0.8,1.7-0.8c0.6,0,1.1,0.2,1.5,0.6c0.3,0.3,0.5,0.7,0.6,1.3L247,4.3c-0.1-0.3-0.2-0.6-0.4-0.8
	s-0.4-0.3-0.7-0.3c-0.4,0-0.7,0.2-1,0.5c-0.2,0.3-0.4,0.9-0.4,1.7c0,0.8,0.1,1.4,0.4,1.7s0.6,0.5,0.9,0.5c0.3,0,0.5-0.1,0.7-0.3
	C246.7,7.1,246.9,6.7,247,6.3z"/>
<path class="st0" d="M248.9,8.6V2.2h1.1v6.4H248.9z"/>
<path class="st0" d="M251,8.6V2.2h3.9v1.1H252v1.4h2.7v1.1H252v1.7h3v1.1H251z"/>
<path class="st0" d="M255.9,8.6V2.2h1l2.2,4.3V2.2h1v6.4H259l-2.1-4.2v4.2H255.9z"/>
<path class="st0" d="M264.6,6.3l1,0.4c-0.2,0.7-0.4,1.2-0.8,1.6s-0.8,0.5-1.4,0.5c-0.7,0-1.2-0.3-1.7-0.8c-0.5-0.6-0.7-1.4-0.7-2.5
	c0-1.1,0.2-2,0.7-2.6c0.4-0.5,1-0.8,1.7-0.8c0.6,0,1.1,0.2,1.5,0.6c0.3,0.3,0.5,0.7,0.6,1.3l-1.1,0.3c-0.1-0.3-0.2-0.6-0.4-0.8
	s-0.4-0.3-0.7-0.3c-0.4,0-0.7,0.2-1,0.5c-0.2,0.3-0.4,0.9-0.4,1.7c0,0.8,0.1,1.4,0.4,1.7s0.6,0.5,0.9,0.5c0.3,0,0.5-0.1,0.7-0.3
	C264.4,7.1,264.5,6.7,264.6,6.3z"/>
<path class="st0" d="M266.6,8.6V2.2h3.9v1.1h-2.9v1.4h2.7v1.1h-2.7v1.7h3v1.1H266.6z"/>
<path class="st0" d="M161.8,19.4h-1.2l-0.5-1.5h-2.1l-0.4,1.5h-1.1l2.1-6.4h1.1L161.8,19.4z M159.9,16.9l-0.7-2.4l-0.7,2.4H159.9z"
	/>
<path class="st0" d="M162.4,19.4V13h1l2.2,4.3V13h1v6.4h-1.1l-2.1-4.2v4.2H162.4z"/>
<path class="st0" d="M167.7,13h1.9c0.5,0,0.9,0.1,1.1,0.2c0.2,0.1,0.5,0.3,0.7,0.6c0.2,0.3,0.4,0.6,0.5,1s0.2,0.9,0.2,1.6
	c0,0.6-0.1,1-0.2,1.5c-0.1,0.4-0.3,0.7-0.5,1c-0.2,0.2-0.4,0.4-0.7,0.5c-0.3,0.1-0.6,0.2-1.1,0.2h-2V13z M168.8,14.1v4.3h0.8
	c0.3,0,0.6,0,0.7-0.1c0.2-0.1,0.3-0.2,0.4-0.3c0.1-0.1,0.2-0.3,0.2-0.6c0.1-0.3,0.1-0.7,0.1-1.1c0-0.5,0-0.9-0.1-1.1
	c-0.1-0.3-0.2-0.5-0.3-0.6c-0.1-0.2-0.3-0.3-0.5-0.3c-0.1,0-0.4-0.1-0.9-0.1H168.8z"/>
<path class="st0" d="M175.1,19.4V13h3.9v1.1h-2.9v1.4h2.7v1.1h-2.7v1.7h3v1.1H175.1z"/>
<path class="st0" d="M180,19.4V13h1l2.2,4.3V13h1v6.4h-1.1l-2.1-4.2v4.2H180z"/>
<path class="st0" d="M187.8,17.1V16h2.3v2.6c-0.2,0.3-0.6,0.5-1,0.7s-0.9,0.3-1.3,0.3c-0.5,0-1-0.1-1.4-0.4s-0.7-0.6-0.9-1.2
	c-0.2-0.5-0.3-1.1-0.3-1.8c0-0.7,0.1-1.3,0.4-1.8c0.2-0.5,0.5-0.9,0.9-1.1c0.4-0.2,0.8-0.4,1.4-0.4c0.6,0,1.1,0.2,1.5,0.5
	c0.4,0.3,0.6,0.8,0.7,1.4L189,15c-0.1-0.3-0.2-0.6-0.4-0.8s-0.5-0.3-0.8-0.3c-0.5,0-0.8,0.2-1.1,0.5c-0.3,0.4-0.4,0.9-0.4,1.6
	c0,0.8,0.2,1.4,0.5,1.8c0.3,0.3,0.6,0.5,1.1,0.5c0.2,0,0.4,0,0.6-0.1c0.2-0.1,0.4-0.2,0.6-0.4v-0.8H187.8z"/>
<path class="st0" d="M191.1,19.4V13h1.1v6.4H191.1z"/>
<path class="st0" d="M193.2,19.4V13h1l2.2,4.3V13h1v6.4h-1.1l-2.1-4.2v4.2H193.2z"/>
<path class="st0" d="M198.5,19.4V13h3.9v1.1h-2.9v1.4h2.7v1.1h-2.7v1.7h3v1.1H198.5z"/>
<path class="st0" d="M203.4,19.4V13h3.9v1.1h-2.9v1.4h2.7v1.1h-2.7v1.7h3v1.1H203.4z"/>
<path class="st0" d="M208.3,19.4V13h2.2c0.6,0,1,0.1,1.2,0.2s0.4,0.3,0.6,0.6c0.2,0.3,0.2,0.6,0.2,1c0,0.5-0.1,0.9-0.4,1.2
	c-0.2,0.3-0.6,0.5-1,0.6c0.2,0.2,0.4,0.3,0.6,0.5s0.4,0.5,0.6,1l0.6,1.3h-1.3L211,18c-0.3-0.5-0.5-0.8-0.6-1
	c-0.1-0.1-0.2-0.2-0.3-0.3c-0.1,0-0.3-0.1-0.5-0.1h-0.2v2.7H208.3z M209.4,15.7h0.8c0.5,0,0.8,0,0.9-0.1c0.1,0,0.2-0.1,0.3-0.3
	s0.1-0.3,0.1-0.5c0-0.2,0-0.4-0.1-0.5s-0.2-0.2-0.3-0.3c-0.1,0-0.4,0-0.9,0h-0.8V15.7z"/>
<path class="st0" d="M213.6,19.4V13h1.1v6.4H213.6z"/>
<path class="st0" d="M215.7,19.4V13h1l2.2,4.3V13h1v6.4h-1.1l-2.1-4.2v4.2H215.7z"/>
<path class="st0" d="M223.5,17.1V16h2.3v2.6c-0.2,0.3-0.6,0.5-1,0.7s-0.9,0.3-1.3,0.3c-0.5,0-1-0.1-1.4-0.4s-0.7-0.6-0.9-1.2
	c-0.2-0.5-0.3-1.1-0.3-1.8c0-0.7,0.1-1.3,0.4-1.8c0.2-0.5,0.5-0.9,0.9-1.1c0.4-0.2,0.8-0.4,1.4-0.4c0.6,0,1.1,0.2,1.5,0.5
	c0.4,0.3,0.6,0.8,0.7,1.4l-1.1,0.2c-0.1-0.3-0.2-0.6-0.4-0.8s-0.5-0.3-0.8-0.3c-0.5,0-0.8,0.2-1.1,0.5c-0.3,0.4-0.4,0.9-0.4,1.6
	c0,0.8,0.2,1.4,0.5,1.8c0.3,0.3,0.6,0.5,1.1,0.5c0.2,0,0.4,0,0.6-0.1c0.2-0.1,0.4-0.2,0.6-0.4v-0.8H223.5z"/>
<path class="st0" d="M230,19.4v-5.4h-1.6V13h4.2v1.1h-1.6v5.4H230z"/>
<path class="st0" d="M233.3,19.4V13h3.9v1.1h-2.9v1.4h2.7v1.1h-2.7v1.7h3v1.1H233.3z"/>
<path class="st0" d="M241.6,17.1l1,0.4c-0.2,0.7-0.4,1.2-0.8,1.6s-0.8,0.5-1.4,0.5c-0.7,0-1.2-0.3-1.7-0.8c-0.5-0.6-0.7-1.4-0.7-2.5
	c0-1.1,0.2-2,0.7-2.6c0.4-0.5,1-0.8,1.7-0.8c0.6,0,1.1,0.2,1.5,0.6c0.3,0.3,0.5,0.7,0.6,1.3l-1.1,0.3c-0.1-0.3-0.2-0.6-0.4-0.8
	s-0.4-0.3-0.7-0.3c-0.4,0-0.7,0.2-1,0.5c-0.2,0.3-0.4,0.9-0.4,1.7c0,0.8,0.1,1.4,0.4,1.7s0.6,0.5,0.9,0.5c0.3,0,0.5-0.1,0.7-0.3
	C241.4,17.9,241.5,17.5,241.6,17.1z"/>
<path class="st0" d="M243.6,19.4V13h1.1v2.5h2.1V13h1.1v6.4h-1.1v-2.8h-2.1v2.8H243.6z"/>
<path class="st0" d="M248.9,19.4V13h1l2.2,4.3V13h1v6.4H252l-2.1-4.2v4.2H248.9z"/>
<path class="st0" d="M254,16.3c0-0.8,0.1-1.4,0.3-1.9c0.2-0.5,0.5-0.9,0.9-1.1s0.8-0.4,1.3-0.4c0.8,0,1.4,0.3,1.8,0.9
	c0.5,0.6,0.7,1.4,0.7,2.5c0,1.1-0.3,1.9-0.8,2.5c-0.4,0.5-1,0.8-1.8,0.8c-0.8,0-1.4-0.3-1.8-0.8C254.3,18.1,254,17.3,254,16.3z
	 M255.1,16.2c0,0.7,0.1,1.3,0.4,1.7c0.3,0.4,0.6,0.6,1,0.6c0.4,0,0.8-0.2,1-0.6c0.3-0.4,0.4-0.9,0.4-1.7c0-0.7-0.1-1.3-0.4-1.7
	S257,14,256.6,14c-0.4,0-0.8,0.2-1.1,0.5C255.2,14.9,255.1,15.5,255.1,16.2z"/>
<path class="st0" d="M260,19.4v-6.4h1.1v5.3h2.7v1.1H260z"/>
<path class="st0" d="M264.3,16.3c0-0.8,0.1-1.4,0.3-1.9c0.2-0.5,0.5-0.9,0.9-1.1s0.8-0.4,1.3-0.4c0.8,0,1.4,0.3,1.8,0.9
	c0.5,0.6,0.7,1.4,0.7,2.5c0,1.1-0.3,1.9-0.8,2.5c-0.4,0.5-1,0.8-1.8,0.8c-0.8,0-1.4-0.3-1.8-0.8C264.5,18.1,264.3,17.3,264.3,16.3z
	 M265.4,16.2c0,0.7,0.1,1.3,0.4,1.7c0.3,0.4,0.6,0.6,1,0.6c0.4,0,0.8-0.2,1-0.6c0.3-0.4,0.4-0.9,0.4-1.7c0-0.7-0.1-1.3-0.4-1.7
	s-0.6-0.5-1.1-0.5c-0.4,0-0.8,0.2-1.1,0.5C265.5,14.9,265.4,15.5,265.4,16.2z"/>
<path class="st0" d="M272.7,17.1V16h2.3v2.6c-0.2,0.3-0.6,0.5-1,0.7s-0.9,0.3-1.3,0.3c-0.5,0-1-0.1-1.4-0.4s-0.7-0.6-0.9-1.2
	c-0.2-0.5-0.3-1.1-0.3-1.8c0-0.7,0.1-1.3,0.4-1.8c0.2-0.5,0.5-0.9,0.9-1.1c0.4-0.2,0.8-0.4,1.4-0.4c0.6,0,1.1,0.2,1.5,0.5
	c0.4,0.3,0.6,0.8,0.7,1.4l-1.1,0.2c-0.1-0.3-0.2-0.6-0.4-0.8S273,14,272.7,14c-0.5,0-0.8,0.2-1.1,0.5c-0.3,0.4-0.4,0.9-0.4,1.6
	c0,0.8,0.2,1.4,0.5,1.8c0.3,0.3,0.6,0.5,1.1,0.5c0.2,0,0.4,0,0.6-0.1c0.2-0.1,0.4-0.2,0.6-0.4v-0.8H272.7z"/>
<path class="st0" d="M277.4,19.4v-2.7l-1.9-3.7h1.2l1.2,2.5l1.2-2.5h1.2l-1.9,3.7v2.7H277.4z"/>
<path class="st0" d="M157.1,30.2v-6.4h1.7c0.6,0,1.1,0,1.3,0.1c0.3,0.1,0.6,0.3,0.8,0.6c0.2,0.3,0.3,0.7,0.3,1.3
	c0,0.5-0.1,0.9-0.3,1.2c-0.2,0.3-0.4,0.5-0.7,0.7c-0.3,0.1-0.7,0.2-1.4,0.2h-0.7v2.4H157.1z M158.1,24.9v1.8h0.6
	c0.4,0,0.7,0,0.8-0.1c0.1-0.1,0.3-0.2,0.4-0.3c0.1-0.1,0.1-0.3,0.1-0.5c0-0.2,0-0.4-0.1-0.5c-0.1-0.1-0.2-0.2-0.3-0.3
	c-0.1,0-0.4-0.1-0.9-0.1H158.1z"/>
<path class="st0" d="M162,30.2v-6.4h2.2c0.6,0,1,0.1,1.2,0.2s0.4,0.3,0.6,0.6c0.2,0.3,0.2,0.6,0.2,1c0,0.5-0.1,0.9-0.4,1.2
	c-0.2,0.3-0.6,0.5-1,0.6c0.2,0.2,0.4,0.3,0.6,0.5c0.1,0.2,0.4,0.5,0.6,1l0.6,1.3h-1.3l-0.8-1.4c-0.3-0.5-0.5-0.8-0.6-1
	c-0.1-0.1-0.2-0.2-0.3-0.3c-0.1,0-0.3-0.1-0.5-0.1h-0.2v2.7H162z M163.1,26.5h0.8c0.5,0,0.8,0,0.9-0.1c0.1,0,0.2-0.1,0.3-0.3
	s0.1-0.3,0.1-0.5c0-0.2,0-0.4-0.1-0.5c-0.1-0.1-0.2-0.2-0.3-0.3c-0.1,0-0.4,0-0.9,0h-0.8V26.5z"/>
<path class="st0" d="M167.1,27.1c0-0.8,0.1-1.4,0.3-1.9c0.2-0.5,0.5-0.9,0.9-1.1s0.8-0.4,1.3-0.4c0.8,0,1.4,0.3,1.8,0.9
	c0.5,0.6,0.7,1.4,0.7,2.5c0,1.1-0.3,1.9-0.8,2.5c-0.4,0.5-1,0.8-1.8,0.8c-0.8,0-1.4-0.3-1.8-0.8C167.4,28.9,167.1,28.1,167.1,27.1z
	 M168.2,27c0,0.7,0.1,1.3,0.4,1.7c0.3,0.4,0.6,0.6,1,0.6c0.4,0,0.8-0.2,1-0.6c0.3-0.4,0.4-0.9,0.4-1.7c0-0.7-0.1-1.3-0.4-1.7
	s-0.6-0.5-1.1-0.5c-0.4,0-0.8,0.2-1.1,0.5C168.3,25.7,168.2,26.3,168.2,27z"/>
<path class="st0" d="M173.1,30.2v-6.4h3.6v1.1h-2.6v1.5h2.2v1.1h-2.2v2.7H173.1z"/>
<path class="st0" d="M177.6,30.2v-6.4h3.9v1.1h-2.9v1.4h2.7v1.1h-2.7v1.7h3v1.1H177.6z"/>
<path class="st0" d="M182.2,28.1l1-0.1c0.1,0.8,0.5,1.2,1.2,1.2c0.3,0,0.6-0.1,0.8-0.3c0.2-0.2,0.3-0.4,0.3-0.6c0-0.1,0-0.3-0.1-0.4
	s-0.2-0.2-0.3-0.3c-0.1-0.1-0.5-0.2-1-0.3c-0.5-0.1-0.8-0.3-1-0.4s-0.4-0.4-0.5-0.6c-0.1-0.3-0.2-0.5-0.2-0.8c0-0.4,0.1-0.7,0.2-0.9
	c0.2-0.3,0.4-0.5,0.7-0.6c0.3-0.1,0.6-0.2,1-0.2c0.6,0,1.1,0.2,1.5,0.5s0.5,0.8,0.6,1.4l-1.1,0.1c0-0.3-0.1-0.6-0.3-0.7
	s-0.4-0.2-0.7-0.2s-0.5,0.1-0.7,0.2c-0.2,0.1-0.2,0.3-0.2,0.4c0,0.2,0.1,0.3,0.2,0.4c0.1,0.1,0.5,0.3,1,0.4c0.5,0.2,0.9,0.3,1.2,0.5
	c0.2,0.2,0.4,0.4,0.5,0.7c0.1,0.3,0.2,0.6,0.2,1c0,0.6-0.2,1-0.5,1.4c-0.3,0.4-0.9,0.6-1.6,0.6C183.1,30.4,182.4,29.6,182.2,28.1z"
	/>
<path class="st0" d="M187.1,28.1l1-0.1c0.1,0.8,0.5,1.2,1.2,1.2c0.3,0,0.6-0.1,0.8-0.3c0.2-0.2,0.3-0.4,0.3-0.6c0-0.1,0-0.3-0.1-0.4
	s-0.2-0.2-0.3-0.3c-0.1-0.1-0.5-0.2-1-0.3c-0.5-0.1-0.8-0.3-1-0.4s-0.4-0.4-0.5-0.6c-0.1-0.3-0.2-0.5-0.2-0.8c0-0.4,0.1-0.7,0.2-0.9
	c0.2-0.3,0.4-0.5,0.7-0.6c0.3-0.1,0.6-0.2,1-0.2c0.6,0,1.1,0.2,1.5,0.5s0.5,0.8,0.6,1.4l-1.1,0.1c0-0.3-0.1-0.6-0.3-0.7
	s-0.4-0.2-0.7-0.2s-0.5,0.1-0.7,0.2c-0.2,0.1-0.2,0.3-0.2,0.4c0,0.2,0.1,0.3,0.2,0.4c0.1,0.1,0.5,0.3,1,0.4c0.5,0.2,0.9,0.3,1.2,0.5
	c0.2,0.2,0.4,0.4,0.5,0.7c0.1,0.3,0.2,0.6,0.2,1c0,0.6-0.2,1-0.5,1.4c-0.3,0.4-0.9,0.6-1.6,0.6C188,30.4,187.3,29.6,187.1,28.1z"/>
<path class="st0" d="M192.3,30.2v-6.4h1.1v6.4H192.3z"/>
<path class="st0" d="M194.2,27.1c0-0.8,0.1-1.4,0.3-1.9c0.2-0.5,0.5-0.9,0.9-1.1s0.8-0.4,1.3-0.4c0.8,0,1.4,0.3,1.8,0.9
	c0.5,0.6,0.7,1.4,0.7,2.5c0,1.1-0.3,1.9-0.8,2.5c-0.4,0.5-1,0.8-1.8,0.8c-0.8,0-1.4-0.3-1.8-0.8C194.4,28.9,194.2,28.1,194.2,27.1z
	 M195.3,27c0,0.7,0.1,1.3,0.4,1.7c0.3,0.4,0.6,0.6,1,0.6c0.4,0,0.8-0.2,1-0.6c0.3-0.4,0.4-0.9,0.4-1.7c0-0.7-0.1-1.3-0.4-1.7
	s-0.6-0.5-1.1-0.5c-0.4,0-0.8,0.2-1.1,0.5C195.4,25.7,195.3,26.3,195.3,27z"/>
<path class="st0" d="M200.1,30.2v-6.4h1l2.2,4.3v-4.3h1v6.4h-1.1l-2.1-4.2v4.2H200.1z"/>
<path class="st0" d="M210.2,30.2h-1.2l-0.5-1.5h-2.1l-0.4,1.5h-1.1l2.1-6.4h1.1L210.2,30.2z M208.3,27.7l-0.7-2.4l-0.7,2.4H208.3z"
	/>
<path class="st0" d="M210.8,30.2v-6.4h1.1v5.3h2.7v1.1H210.8z"/>
<path class="st0" d="M215,28.1l1-0.1c0.1,0.8,0.5,1.2,1.2,1.2c0.3,0,0.6-0.1,0.8-0.3c0.2-0.2,0.3-0.4,0.3-0.6c0-0.1,0-0.3-0.1-0.4
	s-0.2-0.2-0.3-0.3c-0.1-0.1-0.5-0.2-1-0.3c-0.5-0.1-0.8-0.3-1-0.4s-0.4-0.4-0.5-0.6c-0.1-0.3-0.2-0.5-0.2-0.8c0-0.4,0.1-0.7,0.2-0.9
	c0.2-0.3,0.4-0.5,0.7-0.6c0.3-0.1,0.6-0.2,1-0.2c0.6,0,1.1,0.2,1.5,0.5s0.5,0.8,0.6,1.4l-1.1,0.1c0-0.3-0.1-0.6-0.3-0.7
	s-0.4-0.2-0.7-0.2s-0.5,0.1-0.7,0.2c-0.2,0.1-0.2,0.3-0.2,0.4c0,0.2,0.1,0.3,0.2,0.4c0.1,0.1,0.5,0.3,1,0.4c0.5,0.2,0.9,0.3,1.2,0.5
	c0.2,0.2,0.4,0.4,0.5,0.7c0.1,0.3,0.2,0.6,0.2,1c0,0.6-0.2,1-0.5,1.4c-0.3,0.4-0.9,0.6-1.6,0.6C215.9,30.4,215.2,29.6,215,28.1z"/>
<path class="st0" d="M222.1,27.1c0-0.8,0.1-1.4,0.3-1.9c0.2-0.5,0.5-0.9,0.9-1.1s0.8-0.4,1.3-0.4c0.8,0,1.4,0.3,1.8,0.9
	c0.5,0.6,0.7,1.4,0.7,2.5c0,1.1-0.3,1.9-0.8,2.5c-0.4,0.5-1,0.8-1.8,0.8c-0.8,0-1.4-0.3-1.8-0.8C222.3,28.9,222.1,28.1,222.1,27.1z
	 M223.2,27c0,0.7,0.1,1.3,0.4,1.7c0.3,0.4,0.6,0.6,1,0.6c0.4,0,0.8-0.2,1-0.6c0.3-0.4,0.4-0.9,0.4-1.7c0-0.7-0.1-1.3-0.4-1.7
	s-0.6-0.5-1.1-0.5c-0.4,0-0.8,0.2-1.1,0.5C223.3,25.7,223.2,26.3,223.2,27z"/>
<path class="st0" d="M228,30.2v-6.4h3.6v1.1h-2.6v1.5h2.2v1.1h-2.2v2.7H228z"/>
<path class="st0" d="M239.1,30.2h-1.2l-0.5-1.5h-2.1l-0.4,1.5h-1.1l2.1-6.4h1.1L239.1,30.2z M237.1,27.7l-0.7-2.4l-0.7,2.4H237.1z"
	/>
<path class="st0" d="M239.7,30.2v-6.4h1.1v5.3h2.7v1.1H239.7z"/>
<path class="st0" d="M244.1,23.8h2.1c0.6,0,1,0.1,1.2,0.2c0.2,0.1,0.4,0.3,0.6,0.6c0.2,0.3,0.2,0.6,0.2,0.9c0,0.3-0.1,0.6-0.2,0.8
	c-0.1,0.3-0.3,0.4-0.5,0.6c0.3,0.1,0.6,0.3,0.7,0.6c0.2,0.3,0.3,0.6,0.3,1c0,0.5-0.1,0.9-0.3,1.2c-0.2,0.3-0.5,0.5-0.8,0.6
	c-0.2,0.1-0.7,0.1-1.5,0.1h-1.8V23.8z M245.2,24.9v1.5h0.7c0.4,0,0.7,0,0.8,0c0.2,0,0.3-0.1,0.4-0.2c0.1-0.1,0.2-0.3,0.2-0.5
	c0-0.2,0-0.3-0.1-0.5c-0.1-0.1-0.2-0.2-0.3-0.2c-0.1,0-0.5,0-1,0H245.2z M245.2,27.4v1.7h1c0.4,0,0.7,0,0.8-0.1
	c0.1,0,0.2-0.1,0.3-0.3c0.1-0.1,0.1-0.3,0.1-0.5c0-0.2,0-0.4-0.1-0.5s-0.2-0.2-0.4-0.3c-0.1-0.1-0.5-0.1-0.9-0.1H245.2z"/>
<path class="st0" d="M249.5,30.2v-6.4h3.9v1.1h-2.9v1.4h2.7v1.1h-2.7v1.7h3v1.1H249.5z"/>
<path class="st0" d="M254.4,30.2v-6.4h2.2c0.6,0,1,0.1,1.2,0.2s0.4,0.3,0.6,0.6c0.2,0.3,0.2,0.6,0.2,1c0,0.5-0.1,0.9-0.4,1.2
	c-0.2,0.3-0.6,0.5-1,0.6c0.2,0.2,0.4,0.3,0.6,0.5c0.1,0.2,0.4,0.5,0.6,1l0.6,1.3h-1.3l-0.8-1.4c-0.3-0.5-0.5-0.8-0.6-1
	c-0.1-0.1-0.2-0.2-0.3-0.3c-0.1,0-0.3-0.1-0.5-0.1h-0.2v2.7H254.4z M255.5,26.5h0.8c0.5,0,0.8,0,0.9-0.1c0.1,0,0.2-0.1,0.3-0.3
	s0.1-0.3,0.1-0.5c0-0.2,0-0.4-0.1-0.5c-0.1-0.1-0.2-0.2-0.3-0.3c-0.1,0-0.4,0-0.9,0h-0.8V26.5z"/>
<path class="st0" d="M260.9,30.2v-5.4h-1.6v-1.1h4.2v1.1H262v5.4H260.9z"/>
<path class="st0" d="M268.5,30.2h-1.2l-0.5-1.5h-2.1l-0.4,1.5h-1.1l2.1-6.4h1.1L268.5,30.2z M266.5,27.7l-0.7-2.4l-0.7,2.4H266.5z"
	/>
</svg>
