<?xml version="1.0" encoding="utf-8"?>
<!-- Generator: Adobe Illustrator 23.0.1, SVG Export Plug-In . SVG Version: 6.00 Build 0)  -->
<svg version="1.1" id="Layer_1" xmlns="http://www.w3.org/2000/svg" xmlns:xlink="http://www.w3.org/1999/xlink" x="0px" y="0px"
	 viewBox="0 0 165.1 293.9" style="enable-background:new 0 0 165.1 293.9;" xml:space="preserve">
<style type="text/css">
	.st0{fill:#3D3935;}
</style>
<path class="st0" d="M21.1,8.6C20.8,8,20.3,7.4,19.7,7c-0.6-0.5-1.2-0.8-1.9-1.1c-0.7-0.3-1.5-0.4-2.2-0.4c-1.4,0-2.6,0.3-3.6,0.8
	c-1,0.6-1.8,1.3-2.4,2.3c-0.6,1-1.1,2-1.4,3.2c-0.3,1.2-0.4,2.5-0.4,3.8c0,1.2,0.1,2.4,0.4,3.6c0.3,1.2,0.7,2.2,1.4,3.2
	c0.6,0.9,1.4,1.7,2.4,2.3c1,0.6,2.2,0.8,3.6,0.8c1.9,0,3.5-0.6,4.5-1.8c1.1-1.2,1.8-2.8,2-4.8h6.1c-0.2,1.8-0.6,3.5-1.3,5
	c-0.7,1.5-1.6,2.8-2.7,3.8c-1.1,1-2.4,1.8-3.9,2.4c-1.5,0.6-3.1,0.8-4.9,0.8c-2.2,0-4.2-0.4-6-1.2s-3.3-1.9-4.5-3.2
	c-1.2-1.4-2.1-3-2.8-4.9c-0.6-1.9-1-3.9-1-6c0-2.2,0.3-4.3,1-6.1C3,7.6,3.9,5.9,5.1,4.5C6.3,3.1,7.8,2,9.6,1.2
	c1.8-0.8,3.8-1.2,6-1.2c1.6,0,3.1,0.2,4.5,0.7c1.4,0.5,2.7,1.2,3.8,2c1.1,0.9,2,2,2.8,3.3c0.7,1.3,1.2,2.8,1.4,4.6h-6.1
	C21.8,9.9,21.5,9.2,21.1,8.6"/>
<path class="st0" d="M43.8,13.9c-0.7-0.8-1.7-1.2-3.1-1.2c-0.9,0-1.7,0.2-2.3,0.5c-0.6,0.3-1.1,0.7-1.5,1.2c-0.4,0.5-0.6,1-0.8,1.5
	c-0.1,0.5-0.2,1-0.3,1.4h9.3C45,15.8,44.5,14.6,43.8,13.9 M37.3,25.1c0.9,0.9,2.1,1.3,3.7,1.3c1.2,0,2.2-0.3,3-0.9
	c0.8-0.6,1.3-1.2,1.5-1.9h5.1c-0.8,2.6-2,4.4-3.7,5.5c-1.7,1.1-3.7,1.7-6.1,1.7c-1.6,0-3.1-0.3-4.4-0.8c-1.3-0.5-2.4-1.3-3.4-2.3
	c-0.9-1-1.6-2.2-2.1-3.6c-0.5-1.4-0.7-2.9-0.7-4.6c0-1.6,0.3-3.1,0.8-4.5c0.5-1.4,1.2-2.6,2.2-3.6c0.9-1,2.1-1.8,3.4-2.4
	c1.3-0.6,2.8-0.9,4.3-0.9c1.8,0,3.3,0.4,4.7,1.1c1.3,0.7,2.4,1.6,3.3,2.8c0.8,1.2,1.5,2.5,1.8,4.1c0.4,1.5,0.5,3.1,0.4,4.8H35.9
	C36,22.9,36.4,24.3,37.3,25.1"/>
<path class="st0" d="M59,8.9v4h0.1c0.3-0.7,0.6-1.3,1.1-1.8c0.5-0.6,1-1,1.6-1.4c0.6-0.4,1.2-0.7,1.9-0.9c0.7-0.2,1.4-0.3,2.1-0.3
	c0.4,0,0.8,0.1,1.3,0.2v5.5c-0.3-0.1-0.6-0.1-1-0.1c-0.4,0-0.7-0.1-1.1-0.1c-1.1,0-1.9,0.2-2.7,0.5c-0.7,0.4-1.3,0.8-1.8,1.5
	c-0.4,0.6-0.8,1.3-0.9,2.2c-0.2,0.8-0.3,1.7-0.3,2.7v9.6h-5.7V8.9H59z"/>
<path class="st0" d="M82.4,8.9v3.9h-4.2v10.6c0,1,0.2,1.7,0.5,2c0.3,0.3,1,0.5,1.9,0.5c0.3,0,0.6,0,0.9,0c0.3,0,0.6-0.1,0.9-0.1v4.6
	c-0.5,0.1-1,0.1-1.6,0.2c-0.6,0-1.2,0-1.7,0c-0.9,0-1.7-0.1-2.5-0.2c-0.8-0.1-1.5-0.4-2.1-0.7c-0.6-0.4-1.1-0.9-1.4-1.5
	c-0.4-0.7-0.5-1.5-0.5-2.6V12.8H69V8.9h3.5V2.4h5.7v6.4H82.4z"/>
<path class="st0" d="M91,30.2h-5.7V8.9H91V30.2z M85.3,0.7H91v4.8h-5.7V0.7z"/>
<path class="st0" d="M93.4,12.8V8.9h3.4V7.2c0-1.9,0.6-3.5,1.7-4.7c1.2-1.2,2.9-1.8,5.3-1.8c0.5,0,1,0,1.5,0.1c0.5,0,1,0.1,1.5,0.1
	v4.4c-0.7-0.1-1.4-0.1-2.1-0.1c-0.8,0-1.3,0.2-1.7,0.6c-0.3,0.4-0.5,1-0.5,1.9v1.3h4v3.9h-4v17.5h-5.7V12.8H93.4z"/>
<path class="st0" d="M115.7,30.2H110V8.9h5.7V30.2z M110,0.7h5.7v4.8H110V0.7z"/>
<path class="st0" d="M131.3,13.9c-0.7-0.8-1.7-1.2-3.1-1.2c-0.9,0-1.7,0.2-2.3,0.5c-0.6,0.3-1.1,0.7-1.5,1.2c-0.4,0.5-0.6,1-0.8,1.5
	c-0.1,0.5-0.2,1-0.3,1.4h9.3C132.4,15.8,132,14.6,131.3,13.9 M124.8,25.1c0.9,0.9,2.1,1.3,3.7,1.3c1.2,0,2.2-0.3,3-0.9
	c0.8-0.6,1.3-1.2,1.5-1.9h5.1c-0.8,2.6-2,4.4-3.7,5.5c-1.7,1.1-3.7,1.7-6.1,1.7c-1.6,0-3.1-0.3-4.4-0.8c-1.3-0.5-2.4-1.3-3.4-2.3
	c-0.9-1-1.6-2.2-2.1-3.6c-0.5-1.4-0.7-2.9-0.7-4.6c0-1.6,0.3-3.1,0.8-4.5c0.5-1.4,1.2-2.6,2.2-3.6c0.9-1,2.1-1.8,3.4-2.4
	c1.3-0.6,2.8-0.9,4.3-0.9c1.8,0,3.3,0.4,4.6,1.1c1.3,0.7,2.4,1.6,3.3,2.8c0.9,1.2,1.5,2.5,1.8,4.1c0.4,1.5,0.5,3.1,0.4,4.8h-15.1
	C123.5,22.9,123.9,24.3,124.8,25.1"/>
<path class="st0" d="M155.6,16.9c-0.2-0.8-0.4-1.5-0.8-2.2c-0.4-0.6-0.9-1.1-1.5-1.5c-0.6-0.4-1.4-0.6-2.3-0.6
	c-0.9,0-1.7,0.2-2.4,0.6c-0.6,0.4-1.2,0.9-1.6,1.5c-0.4,0.6-0.7,1.4-0.8,2.2c-0.2,0.8-0.3,1.7-0.3,2.5c0,0.8,0.1,1.7,0.3,2.5
	c0.2,0.8,0.5,1.6,0.9,2.2c0.4,0.6,0.9,1.2,1.6,1.6c0.6,0.4,1.4,0.6,2.3,0.6c0.9,0,1.7-0.2,2.4-0.6c0.6-0.4,1.1-0.9,1.5-1.6
	c0.4-0.6,0.6-1.4,0.8-2.2c0.2-0.8,0.2-1.7,0.2-2.6C155.9,18.6,155.8,17.8,155.6,16.9 M155.9,27.5c-0.7,1.2-1.6,2-2.6,2.5
	c-1.1,0.5-2.3,0.8-3.7,0.8c-1.6,0-2.9-0.3-4.1-0.9c-1.2-0.6-2.2-1.5-2.9-2.5c-0.8-1.1-1.3-2.3-1.7-3.7c-0.4-1.4-0.6-2.8-0.6-4.3
	c0-1.4,0.2-2.8,0.6-4.2c0.4-1.3,1-2.5,1.7-3.5c0.8-1,1.7-1.8,2.9-2.5c1.2-0.6,2.5-0.9,4-0.9c1.2,0,2.4,0.3,3.5,0.8
	c1.1,0.5,2,1.3,2.6,2.4h0.1V0.7h5.7v29.5H156L155.9,27.5L155.9,27.5z"/>
<path class="st0" d="M59.3,162.1H90c10.6,0,17.3-6.6,17.3-16.9c0-12.3-9.7-15.7-20-15.7h-28V162.1z M59.3,118.9h24.6
	c14,0,19.6-5.2,19.6-15.1c0-13.1-9-14.9-19.6-14.9H59.3V118.9z M47,78.3h33.5c8.1,0,18.9,0,24.4,3.4c6.1,3.7,10.9,10.4,10.9,19.7
	c0,10-5.2,17.6-13.7,21.2v0.3c11.4,2.4,17.6,11.1,17.6,22.7c0,13.9-9.7,27.1-28,27.1H47V78.3z"/>
<path class="st0" d="M80.8,42.8C36.2,42.8,0,79.8,0,125.5c0,45.7,36.2,82.7,80.8,82.7c44.6,0,80.8-37,80.8-82.7
	C161.7,79.8,125.5,42.8,80.8,42.8 M151,125.6c0,39.7-31.4,71.8-70.2,71.8c-38.8,0-70.2-32.2-70.2-71.8c0-39.7,31.4-71.8,70.2-71.8
	C119.6,53.7,151,85.9,151,125.6"/>
<path class="st0" d="M5.7,281.2c-1.7,0-2.5,1.7-2.5,3.5c0,1.8,0.8,3.5,2.5,3.5c1.7,0,2.5-1.7,2.5-3.5C8.2,282.9,7.4,281.2,5.7,281.2
	 M0.4,275.1h2.9v5.5h0c0.7-1.1,2-1.6,3.3-1.6c2.1,0,4.4,1.7,4.4,5.7c0,4-2.3,5.7-4.4,5.7c-1.6,0-2.9-0.5-3.5-1.7h0v1.4H0.4V275.1z"
	/>
<path class="st0" d="M19.9,283.1c-0.2-1.2-0.9-1.9-2.2-1.9c-1.9,0-2.5,1.9-2.5,3.5c0,1.6,0.6,3.4,2.4,3.4c1.4,0,2.1-0.9,2.3-2.2h2.8
	c-0.4,2.9-2.3,4.5-5.1,4.5c-3.2,0-5.4-2.3-5.4-5.6c0-3.4,2-5.9,5.4-5.9c2.5,0,4.8,1.3,5,4.1H19.9z"/>
<path class="st0" d="M29.9,288.2c2,0,2.6-1.7,2.6-3.5c0-1.8-0.6-3.5-2.6-3.5c-2,0-2.6,1.7-2.6,3.5C27.3,286.4,27.9,288.2,29.9,288.2
	 M29.9,279c3.3,0,5.5,2.3,5.5,5.7c0,3.4-2.2,5.7-5.5,5.7c-3.3,0-5.5-2.3-5.5-5.7C24.4,281.2,26.6,279,29.9,279"/>
<path class="st0" d="M36.8,279.2h2.8v2h0c0.5-1.4,2-2.3,3.4-2.3c0.2,0,0.5,0,0.6,0.1v2.8c-0.3-0.1-0.7-0.1-1.1-0.1
	c-2.1,0-2.9,1.6-2.9,3.5v4.9h-2.9V279.2z"/>
<path class="st0" d="M53.3,284.7c0-1.7-0.7-3.5-2.5-3.5c-1.9,0-2.5,1.7-2.5,3.5c0,1.8,0.7,3.5,2.5,3.5
	C52.7,288.2,53.3,286.5,53.3,284.7 M45.4,279.2h2.8v1.4h0c0.7-1.2,1.8-1.7,3.2-1.7c3.3,0,4.8,2.8,4.8,5.8c0,2.9-1.6,5.6-4.7,5.6
	c-1.3,0-2.5-0.6-3.2-1.6h0v5.2h-2.9V279.2z"/>
<path class="st0" d="M63.2,288.2c2,0,2.6-1.7,2.6-3.5c0-1.8-0.6-3.5-2.6-3.5c-2,0-2.6,1.7-2.6,3.5C60.6,286.4,61.2,288.2,63.2,288.2
	 M63.2,279c3.3,0,5.5,2.3,5.5,5.7c0,3.4-2.2,5.7-5.5,5.7c-3.3,0-5.5-2.3-5.5-5.7C57.7,281.2,59.9,279,63.2,279"/>
<path class="st0" d="M70.3,279.2h2.8v2h0c0.5-1.4,2-2.3,3.4-2.3c0.2,0,0.5,0,0.6,0.1v2.8c-0.3-0.1-0.7-0.1-1-0.1
	c-2.1,0-2.9,1.6-2.9,3.5v4.9h-2.9V279.2z"/>
<path class="st0" d="M85,284.8c-0.5,0.4-1.5,0.5-2.4,0.6c-0.9,0.2-1.7,0.5-1.7,1.6c0,1.1,0.8,1.4,1.8,1.4c2.3,0,2.4-1.8,2.4-2.5
	V284.8z M78.3,282.6c0.2-2.8,2.6-3.6,5-3.6c2.1,0,4.7,0.5,4.7,3.1v5.7c0,1,0.1,2,0.4,2.4h-3c-0.1-0.3-0.2-0.7-0.2-1.1
	c-0.9,1-2.3,1.4-3.6,1.4c-2,0-3.6-1-3.6-3.3c0-2.5,1.8-3,3.6-3.3c1.8-0.3,3.5-0.2,3.5-1.4c0-1.3-0.9-1.5-1.9-1.5
	c-1.1,0-1.8,0.5-1.9,1.6H78.3z"/>
<path class="st0" d="M93.7,279.2h2.1v2h-2.1v5.4c0,1,0.2,1.3,1.2,1.3c0.3,0,0.6,0,0.9-0.1v2.3c-0.5,0.1-1.1,0.1-1.7,0.1
	c-1.8,0-3.4-0.4-3.4-2.6v-6.4H89v-2h1.8V276h2.9V279.2z"/>
<path class="st0" d="M97.2,279.2h2.9v10.9h-2.9V279.2z M100.1,277.6h-2.9v-2.5h2.9V277.6z"/>
<path class="st0" d="M107,288.2c2,0,2.6-1.7,2.6-3.5c0-1.8-0.6-3.5-2.6-3.5c-2,0-2.6,1.7-2.6,3.5C104.5,286.4,105.1,288.2,107,288.2
	 M107,279c3.3,0,5.5,2.3,5.5,5.7c0,3.4-2.2,5.7-5.5,5.7c-3.3,0-5.5-2.3-5.5-5.7C101.6,281.2,103.7,279,107,279"/>
<path class="st0" d="M114,279.2h2.8v1.5h0.1c0.7-1.2,2-1.8,3.2-1.8c3.1,0,3.9,1.8,3.9,4.5v6.7h-2.9V284c0-1.8-0.5-2.7-1.9-2.7
	c-1.6,0-2.3,0.9-2.3,3.1v5.7H114V279.2z"/>
<rect x="126.1" y="286.9" class="st0" width="3.2" height="3.2"/>
<path class="st0" d="M131.4,279.2h2.8v1.5h0.1c0.7-1.2,2-1.8,3.2-1.8c3.1,0,3.9,1.8,3.9,4.5v6.7h-2.9V284c0-1.8-0.5-2.7-1.9-2.7
	c-1.6,0-2.3,0.9-2.3,3.1v5.7h-2.9V279.2z"/>
<path class="st0" d="M150.7,283.5c-0.3-1.5-0.9-2.3-2.3-2.3c-1.8,0-2.4,1.5-2.4,2.3H150.7z M146,285.4c0.1,1.9,1,2.8,2.6,2.8
	c1.2,0,2.1-0.7,2.3-1.4h2.6c-0.8,2.6-2.6,3.7-5,3.7c-3.3,0-5.4-2.4-5.4-5.7c0-3.3,2.2-5.7,5.4-5.7c3.6,0,5.4,3.1,5.2,6.5H146z"/>
<path class="st0" d="M159.1,279.2h2.1v2h-2.1v5.4c0,1,0.2,1.3,1.2,1.3c0.3,0,0.6,0,0.9-0.1v2.3c-0.5,0.1-1.1,0.1-1.7,0.1
	c-1.8,0-3.3-0.4-3.3-2.6v-6.4h-1.8v-2h1.8V276h2.9V279.2z"/>
<path class="st0" d="M14.9,226.1c-0.3-2.1-2.2-3.7-4.5-3.7c-4,0-5.6,3.5-5.6,7.2c0,3.5,1.5,7,5.6,7c2.7,0,4.3-1.9,4.6-4.7h4.4
	c-0.5,5.2-4,8.6-9,8.6c-6.3,0-10-4.8-10-10.9c0-6.2,3.7-11,10-11c4.5,0,8.3,2.7,8.8,7.5H14.9z"/>
<path class="st0" d="M28.8,237.3c2.8,0,3.6-2.4,3.6-4.8c0-2.4-0.8-4.9-3.6-4.9c-2.7,0-3.6,2.4-3.6,4.9
	C25.2,234.8,26.1,237.3,28.8,237.3 M28.8,224.4c4.7,0,7.7,3.2,7.7,8c0,4.8-3,8-7.7,8c-4.6,0-7.6-3.2-7.6-8
	C21.2,227.6,24.2,224.4,28.8,224.4"/>
<path class="st0" d="M38.8,224.8h3.9v2.8h0.1c0.7-1.9,2.7-3.2,4.7-3.2c0.3,0,0.6,0.1,0.9,0.1v3.9c-0.4-0.1-1-0.1-1.5-0.1
	c-3,0-4,2.2-4,4.9v6.8h-4.1V224.8z"/>
<path class="st0" d="M61.5,232.5c0-2.4-0.9-4.9-3.5-4.9c-2.7,0-3.5,2.4-3.5,4.9c0,2.5,0.9,4.8,3.5,4.8
	C60.7,237.3,61.5,234.9,61.5,232.5 M50.5,224.8h3.9v1.9h0.1c1-1.6,2.6-2.3,4.4-2.3c4.6,0,6.7,3.8,6.7,8.1c0,4-2.2,7.8-6.5,7.8
	c-1.8,0-3.5-0.8-4.4-2.3h-0.1v7.2h-4.1V224.8z"/>
<path class="st0" d="M75.2,237.3c2.8,0,3.6-2.4,3.6-4.8c0-2.4-0.8-4.9-3.6-4.9c-2.7,0-3.6,2.4-3.6,4.9
	C71.6,234.8,72.5,237.3,75.2,237.3 M75.2,224.4c4.7,0,7.7,3.2,7.7,8c0,4.8-3,8-7.7,8c-4.6,0-7.6-3.2-7.6-8
	C67.6,227.6,70.6,224.4,75.2,224.4"/>
<path class="st0" d="M85.5,224.8h3.9v2.8h0.1c0.7-1.9,2.7-3.2,4.7-3.2c0.3,0,0.6,0.1,0.9,0.1v3.9c-0.4-0.1-1-0.1-1.5-0.1
	c-3,0-4,2.2-4,4.9v6.8h-4.1V224.8z"/>
<path class="st0" d="M105.9,232.6c-0.7,0.6-2.1,0.6-3.4,0.9c-1.3,0.3-2.4,0.7-2.4,2.2c0,1.6,1.2,1.9,2.5,1.9c3.2,0,3.3-2.6,3.3-3.5
	V232.6z M96.5,229.5c0.2-3.9,3.6-5.1,7-5.1c2.9,0,6.5,0.7,6.5,4.3v7.9c0,1.4,0.1,2.8,0.5,3.4h-4.1c-0.1-0.5-0.3-1-0.3-1.5
	c-1.3,1.4-3.2,1.9-5,1.9c-2.8,0-5-1.4-5-4.5c0-3.4,2.5-4.2,5-4.6c2.5-0.4,4.8-0.3,4.8-2c0-1.8-1.2-2-2.6-2c-1.5,0-2.5,0.6-2.7,2.3
	H96.5z"/>
<path class="st0" d="M118.2,224.8h3v2.8h-3v7.5c0,1.4,0.3,1.8,1.7,1.8c0.4,0,0.8,0,1.3-0.1v3.3c-0.7,0.1-1.6,0.1-2.4,0.1
	c-2.5,0-4.7-0.6-4.7-3.6v-8.9h-2.5v-2.8h2.5v-4.5h4.1V224.8z"/>
<path class="st0" d="M123.3,224.8h4.1V240h-4.1V224.8z M127.3,222.5h-4.1v-3.4h4.1V222.5z"/>
<path class="st0" d="M137.1,237.3c2.8,0,3.6-2.4,3.6-4.8c0-2.4-0.8-4.9-3.6-4.9c-2.7,0-3.6,2.4-3.6,4.9
	C133.5,234.8,134.4,237.3,137.1,237.3 M137.1,224.4c4.7,0,7.7,3.2,7.7,8c0,4.8-3,8-7.7,8c-4.6,0-7.6-3.2-7.6-8
	C129.5,227.6,132.5,224.4,137.1,224.4"/>
<path class="st0" d="M147.4,224.8h3.9v2.1h0.1c1-1.7,2.8-2.5,4.5-2.5c4.3,0,5.4,2.5,5.4,6.2v9.3h-4.1v-8.6c0-2.5-0.7-3.7-2.6-3.7
	c-2.2,0-3.2,1.3-3.2,4.3v7.9h-4.1V224.8z"/>
<rect x="0.3" y="252.9" class="st0" width="161.1" height="10.6"/>
<path class="st0" d="M163.1,219.8c0.1,0,0.2,0,0.2,0c0.1,0,0.1,0,0.2,0c0.1,0,0.1-0.1,0.1-0.1c0-0.1,0.1-0.1,0.1-0.2
	c0-0.1,0-0.1,0-0.2c0,0-0.1-0.1-0.1-0.1c0,0-0.1,0-0.2-0.1c-0.1,0-0.1,0-0.2,0h-0.5v0.7H163.1z M163.3,218.8c0.3,0,0.5,0.1,0.6,0.2
	c0.1,0.1,0.2,0.3,0.2,0.5c0,0.2-0.1,0.4-0.2,0.5c-0.1,0.1-0.3,0.2-0.4,0.2l0.7,1h-0.4l-0.6-1h-0.4v1h-0.4v-2.3H163.3z M161.7,220.6
	c0.1,0.2,0.2,0.4,0.3,0.5c0.1,0.2,0.3,0.3,0.5,0.4c0.2,0.1,0.4,0.1,0.6,0.1c0.2,0,0.4,0,0.6-0.1c0.2-0.1,0.4-0.2,0.5-0.4
	c0.1-0.2,0.3-0.3,0.3-0.5c0.1-0.2,0.1-0.4,0.1-0.7c0-0.2,0-0.5-0.1-0.7c-0.1-0.2-0.2-0.4-0.3-0.5c-0.1-0.2-0.3-0.3-0.5-0.4
	c-0.2-0.1-0.4-0.1-0.6-0.1c-0.2,0-0.4,0-0.6,0.1c-0.2,0.1-0.4,0.2-0.5,0.4c-0.1,0.2-0.3,0.3-0.3,0.5c-0.1,0.2-0.1,0.4-0.1,0.7
	C161.5,220.2,161.6,220.4,161.7,220.6 M161.3,219.1c0.1-0.2,0.2-0.5,0.4-0.6c0.2-0.2,0.4-0.3,0.6-0.4c0.2-0.1,0.5-0.2,0.8-0.2
	c0.3,0,0.5,0.1,0.8,0.2c0.2,0.1,0.4,0.2,0.6,0.4c0.2,0.2,0.3,0.4,0.4,0.6c0.1,0.2,0.2,0.5,0.2,0.8c0,0.3-0.1,0.6-0.2,0.8
	s-0.2,0.5-0.4,0.6c-0.2,0.2-0.4,0.3-0.6,0.4c-0.2,0.1-0.5,0.2-0.8,0.2c-0.3,0-0.5,0-0.8-0.2c-0.2-0.1-0.5-0.2-0.6-0.4
	c-0.2-0.2-0.3-0.4-0.4-0.6c-0.1-0.2-0.2-0.5-0.2-0.8C161.2,219.7,161.2,219.4,161.3,219.1"/>
</svg>
