<?xml version="1.0" encoding="utf-8"?>
<!-- Generator: Adobe Illustrator 23.0.1, SVG Export Plug-In . SVG Version: 6.00 Build 0)  -->
<svg version="1.1" id="Layer_1" xmlns="http://www.w3.org/2000/svg" xmlns:xlink="http://www.w3.org/1999/xlink" x="0px" y="0px"
	 viewBox="0 0 285.6 91.9" style="enable-background:new 0 0 285.6 91.9;" xml:space="preserve">
<style type="text/css">
	.st0{fill-rule:evenodd;clip-rule:evenodd;fill:#3D3935;}
	.st1{fill:#3D3935;}
</style>
<g>
	<path class="st0" d="M112.7,60.5c0.1-0.2,0.2,0.1,0.2,0.1L112.7,60.5c0,0-27.3-0.6-32.6-9.6C75.5,42.9,93.7,37,93.7,37l0.2,0.1
		c0,0-9.7,6.3-5.9,12.1C92.3,55.9,112.7,60.5,112.7,60.5"/>
	<path class="st0" d="M97.8,45.7c1.9,1.9,2.6,4.4,1.3,5.7c-1.2,1.2-3.8,0.8-5.7-1.1c-1.9-1.9-2.5-4.4-1.3-5.7
		C93.3,43.4,95.9,43.8,97.8,45.7"/>
	<path class="st0" d="M58.3,91.8l-0.1,0.2l-0.1-0.1c0,0-5.7-19.1,11-25.4c15.6-5.8,39,4.4,39,4.4l-0.1,0c0,0-22-3.3-34.1,1.4
		C61.1,77.2,58.3,91.8,58.3,91.8"/>
	<path class="st0" d="M81.3,33.2L81.3,33.2c0,0-7,9.5-22.7,9.5c-15.2-0.1-17.6-9.3-17.6-9.3s6.8,5,17.9,5
		C70.5,38.3,81.3,33.2,81.3,33.2"/>
	<path class="st0" d="M28.5,36.7L28.5,36.7l0.1,0c0,0,14,5.9,6.3,13.3c-8.8,8.5-31.7,7.8-31.7,7.8l-0.1-0.1l0.1,0.1
		c0,0,18.4-3.9,25.1-9.9C34.3,42.2,28.5,36.7,28.5,36.7"/>
	<path class="st0" d="M1.7,67.4l-0.2,0c0.1-0.2,0.2-0.2,0.2-0.2s23.8-7.9,35.4-1.6c13.3,7.2-0.8,24.9-0.8,24.9s-0.1,0.2-0.2,0.2
		l0.1-0.2c0,0,3.8-14.1-6-19.6C21.5,65.7,1.7,67.4,1.7,67.4"/>
	<path class="st0" d="M60,29.6c2.7,0,5,1.5,5,3.3c0,1.8-2.2,3.3-4.9,3.4c-2.8,0-5-1.5-5.1-3.3C55,31.1,57.2,29.6,60,29.6"/>
	<path class="st0" d="M74.5,74.2c2.7-1.1,5.4-0.5,6.1,1.2c0.7,1.8-0.9,4.1-3.5,5.2c-2.7,1-5.4,0.5-6.1-1.2
		C70.3,77.6,71.9,75.3,74.5,74.2"/>
	<path class="st0" d="M21.1,42.1c2.5-1,5.1-0.5,5.8,1.1c0.7,1.7-0.8,3.9-3.3,4.9c-2.5,1-5.1,0.5-5.8-1.2
		C17.1,45.3,18.6,43.1,21.1,42.1"/>
	<path class="st0" d="M29.9,73.7c1.9,1.9,2.6,4.5,1.3,5.9c-1.3,1.3-3.9,0.8-5.9-1.1c-2-1.9-2.6-4.5-1.3-5.8
		C25.2,71.3,27.9,71.8,29.9,73.7"/>
	<path class="st0" d="M143.1,39.1c0,1.9-0.5,3.6-1.4,5.1c-0.9,1.5-2.2,2.7-3.7,3.7c1.5,0.9,2.8,2.1,3.7,3.6c0.9,1.5,1.4,3.2,1.4,5
		v1.2c0,1.4-0.3,2.7-0.7,4c-0.5,1.2-1.2,2.3-2.2,3.2c-0.9,0.9-2,1.6-3.3,2.2c-1.3,0.5-2.8,0.8-4.4,0.8h-11V27.7h11
		c1.6,0,3.1,0.3,4.5,0.8c1.3,0.5,2.4,1.2,3.3,2.2c0.9,0.9,1.6,2,2.1,3.2c0.5,1.3,0.7,2.6,0.7,4.1V39.1z M139.1,56.6
		c0-1-0.2-1.9-0.4-2.8c-0.3-0.9-0.6-1.6-1.1-2.3c-0.5-0.7-1.1-1.2-1.9-1.6c-0.8-0.4-1.6-0.6-2.7-0.6h-7.4v15.5h7.4
		c1.1,0,2.1-0.2,2.8-0.5c0.8-0.4,1.4-0.9,1.9-1.5c0.5-0.7,0.8-1.4,1-2.3c0.3-0.9,0.4-1.9,0.4-2.9V56.6z M139.1,37.9
		c0-2.1-0.5-3.9-1.4-5.2c-0.9-1.3-2.5-2-4.7-2h-7.3v15.5h7.4c2.2,0,3.8-0.7,4.7-2c0.9-1.4,1.4-3.1,1.4-5.1V37.9z"/>
	<path class="st0" d="M166.1,38.8v18.9c0,1.4-0.3,2.8-0.8,4.1c-0.5,1.3-1.2,2.4-2.1,3.3c-0.9,1-2,1.7-3.1,2.3
		c-1.2,0.6-2.4,0.8-3.7,0.8c-1.4,0-2.7-0.3-4-0.8c-1.2-0.6-2.3-1.3-3.2-2.3c-0.9-0.9-1.6-2.1-2.2-3.3c-0.6-1.3-0.8-2.7-0.8-4.1V38.8
		h4.1v18.9c0,2.2,0.5,4,1.6,5.4c1,1.4,2.6,2.1,4.6,2.1c2,0,3.4-0.7,4.3-2.1c0.8-1.4,1.2-3.2,1.2-5.4V38.8H166.1z"/>
	<path class="st0" d="M180.9,41.6c-0.2-0.1-0.4-0.1-0.6-0.1h-0.6c-1.8,0-3.2,0.7-4.4,2c-1.1,1.3-1.7,3.1-1.7,5.3v19.1h-4.1V48.8
		c0-1.4,0.3-2.8,0.8-4c0.5-1.3,1.2-2.4,2.2-3.3c0.9-0.9,2-1.6,3.2-2.2c1.2-0.5,2.5-0.8,3.9-0.8c0.8,0,1.5,0.1,2.3,0.4L180.9,41.6z"
		/>
	<path class="st0" d="M198.9,48.8c0-2.1-0.5-3.8-1.5-5.2c-0.9-1.4-2.4-2.1-4.4-2.1c-2,0-3.4,0.7-4.4,2.1c-1,1.4-1.5,3.1-1.5,5.2
		v19.1H183V48.7c0-1.4,0.3-2.8,0.8-4c0.6-1.2,1.3-2.3,2.2-3.2c0.9-0.9,2-1.6,3.1-2.2c1.2-0.5,2.5-0.8,3.9-0.8c1.4,0,2.8,0.3,4,0.8
		c1.3,0.6,2.4,1.3,3.2,2.2c0.9,0.9,1.6,2,2.2,3.2c0.5,1.2,0.8,2.6,0.8,4v19.2h-4.3V48.8z"/>
	<path class="st0" d="M207.3,45.3c0.2-1.2,0.6-2.3,1.2-3.2c0.7-0.9,1.4-1.6,2.3-2.2c0.9-0.6,1.8-1,2.8-1.2c1-0.3,2-0.4,2.8-0.4
		c3,0,5.4,0.9,7.1,2.6c1.7,1.7,2.5,4.1,2.5,7.2v11.5c0,1.2-0.3,2.4-0.8,3.4c-0.5,1.1-1.3,2-2.2,2.7c-1,0.8-2.1,1.4-3.3,1.8
		c-1.2,0.5-2.5,0.7-3.9,0.7c-1.4,0-2.7-0.3-3.9-0.7c-1.2-0.5-2.3-1.1-3.1-1.9c-0.9-0.8-1.5-1.7-2-2.8c-0.5-1-0.8-2.2-0.8-3.3
		c0-2.6,0.9-4.7,2.5-6.2c1.7-1.4,4-2.5,6.8-3.2c0.5-0.2,1.1-0.3,1.9-0.5c0.8-0.2,1.4-0.5,2.1-0.9c0.7-0.4,1.3-0.8,1.8-1.3
		c0.5-0.5,0.8-1.2,0.8-1.9s-0.2-1.3-0.5-1.9c-0.4-0.5-0.8-0.9-1.3-1.3c-0.6-0.3-1.1-0.6-1.8-0.7c-0.7-0.2-1.3-0.3-2-0.3
		c-0.5,0-1.1,0.1-1.7,0.3c-0.6,0.2-1.2,0.4-1.8,0.8s-1,0.8-1.4,1.3c-0.4,0.5-0.6,1.2-0.7,1.9L207.3,45.3z M222.1,50.8
		c-0.8,0.7-1.6,1.2-2.7,1.5c-1.1,0.3-2.2,0.7-3.4,1c-1.5,0.4-2.9,1.2-4,2.3c-1.1,1-1.6,2.3-1.6,3.8c0,0.8,0.2,1.5,0.4,2.2
		c0.3,0.7,0.7,1.3,1.2,1.9c0.5,0.6,1.1,1,1.8,1.3c0.7,0.3,1.4,0.5,2.3,0.5c1.7,0,3.2-0.5,4.4-1.6c1.2-1.1,1.8-2.4,1.8-4V50.8z"/>
	<path class="st0" d="M239,38.5c1.4,0,2.7,0.3,3.9,0.8c1.2,0.6,2.3,1.3,3.2,2.2c0.9,0.9,1.6,2,2.2,3.2c0.5,1.2,0.8,2.6,0.8,4V58
		c0,1.4-0.3,2.8-0.8,4.1c-0.6,1.3-1.3,2.4-2.2,3.3c-0.9,0.9-2,1.6-3.2,2.2c-1.2,0.5-2.5,0.8-3.9,0.8c-1.3,0-2.7-0.3-3.9-0.8
		c-1.2-0.6-2.3-1.3-3.2-2.2c-0.9-0.9-1.6-2-2.1-3.3c-0.5-1.2-0.8-2.6-0.8-4.1V27.7h4.1v12.7C234.8,39.1,236.8,38.5,239,38.5
		 M245.1,48.7c0-2.1-0.5-3.8-1.4-5.1c-0.9-1.4-2.4-2.1-4.4-2.1c-2,0-3.4,0.7-4.5,2.1c-1,1.4-1.6,3.1-1.6,5.1V58
		c0,2.1,0.5,3.8,1.5,5.2c0.9,1.4,2.4,2.1,4.4,2.1c2,0,3.5-0.7,4.5-2.1c1-1.4,1.5-3.2,1.5-5.2V48.7z"/>
	<path class="st0" d="M267,66.3c-0.4,0.7-1.1,1.2-2.1,1.5c-0.9,0.4-2,0.5-3,0.5c-1.3,0-2.6-0.2-3.8-0.7c-1.2-0.5-2.2-1.1-3.1-1.9
		c-0.9-0.9-1.6-1.9-2.2-3c-0.5-1.1-0.8-2.4-0.8-3.8V38.8h4v19.6c0,2.1,0.5,3.8,1.5,5c1,1.3,2.5,1.9,4.4,1.9c2,0,3.3-0.6,4-2
		c0.7-1.3,1.1-2.9,1.1-5V38.8h3.9V68v2.6c0,1.4-0.3,2.8-0.7,4c-0.5,1.2-1.1,2.3-2,3.2c-0.8,0.9-1.8,1.7-2.9,2.2
		c-1.1,0.5-2.2,0.8-3.4,0.8c-0.4,0-0.8,0-1.2-0.1c-0.4-0.1-0.8-0.2-1.2-0.4l0.9-2.8c0.4,0.1,0.8,0.2,1.2,0.2c1.9,0,3.3-0.7,4.1-2.1
		c0.8-1.3,1.2-3,1.2-5.1v-2.3V66.3z"/>
	<path class="st1" d="M128,82c0,1-0.3,1.8-0.9,2.4c1,0.6,1.5,1.7,1.5,3.1c0,1.9-0.9,3.4-2.9,3.4H123v-12h2.3
		C127.2,78.9,128,80.3,128,82 M124,84.1h1.3c1.3,0,1.6-0.9,1.6-2.1c0-1.1-0.3-2.1-1.6-2.1H124V84.1z M124,89.9h1.7
		c1.4,0,1.8-1.1,1.8-2.4c0-1.3-0.4-2.4-1.8-2.4H124V89.9z"/>
	<path class="st1" d="M135.9,91.1c-2.3,0-3.2-1.5-3.2-6.2c0-4.6,0.9-6.2,3.2-6.2s3.2,1.5,3.2,6.2C139,89.6,138.1,91.1,135.9,91.1
		 M133.8,84.9c0,3.8,0.4,5.1,2.1,5.1c1.7,0,2.1-1.3,2.1-5.1c0-3.8-0.4-5.1-2.1-5.1C134.2,79.8,133.8,81.1,133.8,84.9"/>
	<path class="st1" d="M143.9,90.9h-1.1l2.8-12h1.4l2.8,12h-1.1l-0.7-3.3h-3.5L143.9,90.9z M146.9,82.2c-0.2-1.1-0.6-2.9-0.6-2.9
		s-0.3,1.8-0.6,2.9l-1,4.4h3.1L146.9,82.2z"/>
	<path class="st1" d="M160.1,90.9H159l-2.4-5.2H155v5.2h-1v-12h2.7c1.9,0,2.8,1.5,2.8,3.4c0,1.5-0.6,2.8-1.9,3.3L160.1,90.9z
		 M155,84.7h1.7c1.3,0,1.8-1.1,1.8-2.4s-0.4-2.4-1.8-2.4H155V84.7z"/>
	<path class="st1" d="M166.9,90.9h-2.4v-12h2.4c3.1,0,3.8,2.6,3.8,6C170.7,88.4,170,90.9,166.9,90.9 M165.5,79.9v10h1.4
		c2.3,0,2.8-2.2,2.8-5c0-2.8-0.4-5-2.8-5H165.5z"/>
	<path class="st1" d="M183.6,91.1c-2.3,0-3.2-1.5-3.2-6.2c0-4.6,0.9-6.2,3.2-6.2c2.3,0,3.2,1.5,3.2,6.2
		C186.7,89.6,185.8,91.1,183.6,91.1 M181.5,84.9c0,3.8,0.4,5.1,2.1,5.1c1.7,0,2.1-1.3,2.1-5.1c0-3.8-0.4-5.1-2.1-5.1
		C181.9,79.8,181.5,81.1,181.5,84.9"/>
	<polygon class="st1" points="192.5,90.9 191.5,90.9 191.5,78.9 195.8,78.9 195.8,79.9 192.5,79.9 192.5,84.1 195.7,84.1 
		195.7,85.1 192.5,85.1 	"/>
	<polygon class="st1" points="207.7,90.9 206.7,90.9 206.7,79.9 204.3,79.9 204.3,78.9 210.2,78.9 210.2,79.9 207.7,79.9 	"/>
	<path class="st1" d="M220.2,90.9H219l-2.4-5.2H215v5.2h-1v-12h2.7c1.9,0,2.8,1.5,2.8,3.4c0,1.5-0.6,2.8-1.9,3.3L220.2,90.9z
		 M215,84.7h1.7c1.3,0,1.8-1.1,1.8-2.4s-0.4-2.4-1.8-2.4H215V84.7z"/>
	<path class="st1" d="M224.6,90.9h-1.1l2.8-12h1.4l2.8,12h-1.1l-0.7-3.3h-3.5L224.6,90.9z M227.6,82.2c-0.2-1.1-0.6-2.9-0.6-2.9
		s-0.3,1.8-0.6,2.9l-1,4.4h3.1L227.6,82.2z"/>
	<path class="st1" d="M237.1,90.9h-2.4v-12h2.4c3.1,0,3.8,2.6,3.8,6C240.9,88.4,240.2,90.9,237.1,90.9 M235.7,79.9v10h1.4
		c2.3,0,2.8-2.2,2.8-5c0-2.8-0.4-5-2.8-5H235.7z"/>
	<polygon class="st1" points="250.3,89.9 250.3,90.9 245.7,90.9 245.7,78.9 250.1,78.9 250.1,79.9 246.7,79.9 246.7,84.1 250,84.1 
		250,85.1 246.7,85.1 246.7,89.9 	"/>
</g>
<g>
	<path class="st1" d="M0,13.4v-1.8l4.7-4.8C5.7,5.7,6.2,5,6.2,4c0-1.2-0.7-1.8-2-1.8c-1.3,0-2.5,0.6-3.5,1.5L0.3,1.4
		C1.4,0.6,2.7,0,4.5,0c2.7,0,4.3,1.4,4.3,3.7c0,1.7-0.8,2.8-2.4,4.4l-3.2,3.2h5.5L9,13.4H0z"/>
	<path class="st1" d="M16.3,13.7c-3.2,0-5.3-2.5-5.3-6.8S13.1,0,16.3,0c3.1,0,5.2,2.5,5.2,6.8S19.4,13.7,16.3,13.7z M16.3,2
		c-1.8,0-2.8,1.7-2.8,4.8s1,4.8,2.8,4.8c1.8,0,2.7-1.7,2.7-4.8S18.1,2,16.3,2z"/>
	<path class="st1" d="M25.5,13.4V2.7l-2.7,1l-0.3-2l3.3-1.5H28v13.2H25.5z"/>
	<path class="st1" d="M30.4,3.5c0-2.1,1.8-3.5,4.5-3.5c2.7,0,4.3,1.4,4.3,3.3c0,1.4-0.9,2.4-2.1,3.2c1.7,0.8,2.6,1.7,2.6,3.5
		c0,2.1-1.9,3.7-4.9,3.7C31.6,13.7,30,12,30,10c0-1.5,1-2.7,2.6-3.5C31.2,5.9,30.4,5,30.4,3.5z M32.3,9.8c0,1.2,1.1,2,2.5,2
		c1.4,0,2.4-0.7,2.4-1.9c0-1.2-0.8-1.7-3-2.6C33.1,7.9,32.3,8.8,32.3,9.8z M36.9,3.5c0-1-0.8-1.7-2.1-1.7c-1.3,0-2.1,0.7-2.1,1.7
		c0,1,0.7,1.5,2.6,2.3C36.3,5.1,36.9,4.4,36.9,3.5z"/>
	<path class="st1" d="M41.1,8.9V6.7h7v2.2H41.1z"/>
	<path class="st1" d="M51.5,13.4V2.7l-2.7,1l-0.3-2l3.3-1.5H54v13.2H51.5z"/>
	<path class="st1" d="M59.8,8.6c-2.4,0-4-1.4-4-4.1c0-2.7,2-4.5,4.7-4.5c2.9,0,4.9,1.9,4.9,5.6c0,4.6-3.1,7.3-7.5,8.1l-0.3-2.1
		c2.6-0.5,4.7-1.7,5.4-4C62,8.3,61,8.6,59.8,8.6z M63.2,5.7c0-2.4-1.1-3.8-2.6-3.8c-1.4,0-2.3,0.9-2.3,2.5c0,1.5,0.7,2.3,2.3,2.3
		C61.5,6.7,62.3,6.4,63.2,5.7L63.2,5.7z"/>
	<path class="st1" d="M77.6,8.3h-2v5.1h-1.2V0.3h3.2c2.9,0,5,1.4,5,4C82.6,6.9,80.5,8.3,77.6,8.3z M77.7,1.4h-2v5.8h2
		c2.2,0,3.7-0.9,3.7-2.9C81.4,2.3,79.9,1.4,77.7,1.4z"/>
	<path class="st1" d="M92.3,13.6l-4.2-5.7h-2.3v5.6h-1.2V0.3H88c3.1,0,4.8,1.5,4.8,3.7c0,2-1.3,3.3-3.3,3.7l4.1,5.6L92.3,13.6z
		 M87.9,1.4h-2.1v5.4H88c2.5,0,3.6-1.2,3.6-2.8C91.5,2.4,90.4,1.4,87.9,1.4z"/>
	<path class="st1" d="M100.6,13.7c-3.5,0-5.9-2.8-5.9-6.8s2.4-6.8,5.9-6.8c3.5,0,5.9,2.8,5.9,6.8C106.5,10.9,104.1,13.7,100.6,13.7z
		 M100.6,1.2c-2.8,0-4.7,2.3-4.7,5.7c0,3.5,1.9,5.7,4.7,5.7c2.9,0,4.7-2.3,4.7-5.7C105.3,3.5,103.5,1.2,100.6,1.2z"/>
	<path class="st1" d="M114.4,13.6c-3.1,0-4.8-2.1-4.8-5.1V0.3h1.2v8.1c0,2.5,1.2,4.2,3.7,4.2c2.4,0,3.7-1.6,3.7-4.1V0.3h1.2v8.1
		C119.4,11.6,117.5,13.6,114.4,13.6z"/>
	<path class="st1" d="M126.4,13.4H123V0.3h3.5c4.4,0,6.8,2.6,6.8,6.6C133.3,10.9,130.6,13.4,126.4,13.4z M126.5,1.4h-2.3v10.9h2.3
		c3.4,0,5.6-1.8,5.6-5.5C132.1,3.3,129.8,1.4,126.5,1.4z"/>
	<path class="st1" d="M154.9,13.4l-0.9-11.4l-4.7,11.4h-1.1l-4.7-11.4l-0.9,11.4h-1.2l1-13.1h1.6l4.8,11.5l4.7-11.5h1.5l1.1,13.1
		H154.9z"/>
	<path class="st1" d="M159.1,13.4V0.3h7.6v1.1h-6.4V6h5.2l0.2,1.1h-5.4v5.2h6.6v1.1H159.1z"/>
	<path class="st1" d="M182.2,13.4l-0.9-11.4l-4.7,11.4h-1.1l-4.7-11.4L170,13.4h-1.2l1-13.1h1.6l4.8,11.5l4.7-11.5h1.5l1.1,13.1
		H182.2z"/>
	<path class="st1" d="M190.1,13.4h-3.7V0.3h3.7c2.9,0,4.3,1.4,4.3,3.2c0,1.5-0.9,2.4-2.3,3c1.8,0.4,2.9,1.5,2.9,3.2
		C195,12.1,193.2,13.4,190.1,13.4z M190.1,1.3h-2.5v4.7h2.4c2.1,0,3.2-1,3.2-2.5C193.3,2.2,192.3,1.3,190.1,1.3z M190.2,7h-2.6v5.3
		h2.6c2.3,0,3.6-1,3.6-2.7C193.8,7.9,192.4,7,190.2,7z"/>
	<path class="st1" d="M197.7,13.4V0.3h7.6v1.1h-6.4V6h5.2l0.2,1.1h-5.4v5.2h6.6v1.1H197.7z"/>
	<path class="st1" d="M215.3,13.6l-4.2-5.7h-2.3v5.6h-1.2V0.3h3.5c3.1,0,4.8,1.5,4.8,3.7c0,2-1.3,3.3-3.3,3.7l4.1,5.6L215.3,13.6z
		 M210.9,1.4h-2.1v5.4h2.2c2.5,0,3.6-1.2,3.6-2.8C214.5,2.4,213.4,1.4,210.9,1.4z"/>
	<path class="st1" d="M229.6,13.7c-3.5,0-5.9-2.8-5.9-6.8s2.4-6.8,5.9-6.8c3.5,0,5.9,2.8,5.9,6.8C235.6,10.9,233.1,13.7,229.6,13.7z
		 M229.7,1.2c-2.8,0-4.7,2.3-4.7,5.7c0,3.5,1.9,5.7,4.7,5.7c2.9,0,4.7-2.3,4.7-5.7C234.4,3.5,232.5,1.2,229.7,1.2z"/>
	<path class="st1" d="M240,1.4v4.8h5l0.2,1.1H240v6.1h-1.2V0.3h7.3v1.1H240z"/>
	<path class="st1" d="M257.8,1.4v12h-1.2v-12h-4.5V0.3h10.1l0.2,1.1H257.8z"/>
	<path class="st1" d="M272.9,13.4V7.1h-7.4v6.3h-1.2V0.3h1.2V6h7.4V0.3h1.2v13.1H272.9z"/>
	<path class="st1" d="M277.8,13.4V0.3h7.6v1.1H279V6h5.2l0.2,1.1H279v5.2h6.6v1.1H277.8z"/>
</g>
</svg>
