<?xml version="1.0" encoding="utf-8"?>
<!-- Generator: Adobe Illustrator 23.0.1, SVG Export Plug-In . SVG Version: 6.00 Build 0)  -->
<svg version="1.1" xmlns="http://www.w3.org/2000/svg" xmlns:xlink="http://www.w3.org/1999/xlink" x="0px" y="0px"
	 viewBox="0 0 368.8 368.8" style="enable-background:new 0 0 368.8 368.8;" xml:space="preserve">
<style type="text/css">
	.st0{fill:none;stroke:#3D3935;stroke-width:17;stroke-miterlimit:10;}
	.st1{fill:#3D3935;}
</style>
<g id="Layer_1">
	
		<ellipse transform="matrix(0.2307 -0.973 0.973 0.2307 -37.5647 321.3123)" class="st0" cx="184.4" cy="184.4" rx="175.9" ry="175.9"/>
	<path class="st1" d="M185.2,346.1c-0.9,0-1.6-0.7-1.6-1.6c0-0.9,0.7-1.6,1.6-1.6l0.6,0c0.9,0,1.6,0.7,1.6,1.6
		c0,0.9-0.7,1.6-1.6,1.7L185.2,346.1C185.2,346.1,185.2,346.1,185.2,346.1z M177.1,346C177.1,346,177.1,346,177.1,346l-0.7,0
		c-0.9,0-1.6-0.8-1.6-1.7c0-0.9,0.8-1.6,1.7-1.6l0.6,0c0.9,0,1.6,0.8,1.6,1.7C178.7,345.3,178,346,177.1,346z M194,345.8
		c-0.8,0-1.6-0.7-1.6-1.5c-0.1-0.9,0.6-1.7,1.5-1.7l0.6,0c0.9-0.1,1.7,0.6,1.7,1.5c0.1,0.9-0.6,1.7-1.5,1.7L194,345.8
		C194,345.8,194,345.8,194,345.8z M168.4,345.4c-0.1,0-0.1,0-0.2,0l-0.7-0.1c-0.9-0.1-1.5-0.9-1.5-1.8c0.1-0.9,0.9-1.6,1.8-1.5
		l0.6,0.1c0.9,0.1,1.5,0.9,1.5,1.8C169.9,344.8,169.2,345.4,168.4,345.4z M202.7,345c-0.8,0-1.5-0.6-1.6-1.4
		c-0.1-0.9,0.5-1.7,1.4-1.8l0.6-0.1c0.9-0.1,1.7,0.5,1.8,1.4c0.1,0.9-0.5,1.7-1.4,1.8l-0.6,0.1C202.8,345,202.7,345,202.7,345z
		 M159.7,344.4c-0.1,0-0.2,0-0.2,0l-0.7-0.1c-0.9-0.1-1.5-1-1.3-1.9c0.1-0.9,1-1.5,1.8-1.3l0.6,0.1c0.9,0.1,1.5,1,1.4,1.8
		C161.2,343.8,160.5,344.4,159.7,344.4z M211.3,343.7c-0.8,0-1.5-0.6-1.6-1.3c-0.2-0.9,0.4-1.7,1.3-1.9l0.6-0.1
		c0.9-0.2,1.7,0.4,1.9,1.3c0.2,0.9-0.4,1.7-1.3,1.9l-0.6,0.1C211.5,343.7,211.4,343.7,211.3,343.7z M151.1,342.9c-0.1,0-0.2,0-0.3,0
		l-0.6-0.1c-0.9-0.2-1.4-1-1.2-1.9c0.2-0.9,1-1.4,1.9-1.2l0.6,0.1c0.9,0.2,1.4,1,1.3,1.9C152.6,342.3,151.9,342.9,151.1,342.9z
		 M219.9,341.9c-0.7,0-1.4-0.5-1.6-1.2c-0.2-0.9,0.3-1.7,1.2-1.9l0.6-0.1c0.9-0.2,1.8,0.3,2,1.2c0.2,0.9-0.3,1.7-1.2,1.9l-0.6,0.2
		C220.1,341.9,220,341.9,219.9,341.9z M142.6,340.9c-0.1,0-0.3,0-0.4-0.1l-0.6-0.2c-0.9-0.2-1.4-1.1-1.1-2c0.2-0.9,1.1-1.4,2-1.1
		l0.6,0.2c0.9,0.2,1.4,1.1,1.2,2C144,340.4,143.3,340.9,142.6,340.9z M228.3,339.7c-0.7,0-1.3-0.5-1.5-1.2c-0.2-0.9,0.2-1.8,1.1-2
		l0.6-0.2c0.8-0.3,1.8,0.2,2,1.1c0.3,0.9-0.2,1.8-1.1,2l-0.6,0.2C228.6,339.6,228.4,339.7,228.3,339.7z M134.2,338.4
		c-0.2,0-0.3,0-0.5-0.1l-0.6-0.2c-0.9-0.3-1.3-1.2-1-2c0.3-0.9,1.2-1.3,2-1l0.6,0.2c0.8,0.3,1.3,1.2,1,2
		C135.5,338,134.9,338.4,134.2,338.4z M236.6,337c-0.7,0-1.3-0.4-1.5-1.1c-0.3-0.8,0.1-1.8,1-2.1l0.6-0.2c0.9-0.3,1.8,0.1,2.1,1
		c0.3,0.8-0.1,1.8-1,2.1l-0.6,0.2C237,336.9,236.8,337,236.6,337z M126,335.5c-0.2,0-0.4,0-0.6-0.1l-0.6-0.2
		c-0.8-0.3-1.2-1.3-0.9-2.1c0.3-0.8,1.3-1.2,2.1-0.9l0.6,0.2c0.8,0.3,1.2,1.2,0.9,2.1C127.3,335.1,126.7,335.5,126,335.5z
		 M244.8,333.8c-0.6,0-1.2-0.4-1.5-1c-0.3-0.8,0.1-1.8,0.9-2.1l0.6-0.2c0.8-0.3,1.8,0,2.1,0.9c0.3,0.8,0,1.8-0.9,2.1l-0.6,0.3
		C245.2,333.8,245,333.8,244.8,333.8z M117.9,332.1c-0.2,0-0.4,0-0.7-0.1l-0.6-0.3c-0.8-0.4-1.2-1.3-0.8-2.1
		c0.4-0.8,1.3-1.2,2.1-0.8l0.6,0.3c0.8,0.4,1.2,1.3,0.8,2.1C119.1,331.8,118.6,332.1,117.9,332.1z M252.7,330.3
		c-0.6,0-1.2-0.3-1.5-0.9c-0.4-0.8,0-1.8,0.8-2.2l0.6-0.3c0.8-0.4,1.8,0,2.2,0.7c0.4,0.8,0.1,1.8-0.7,2.2l-0.6,0.3
		C253.2,330.2,253,330.3,252.7,330.3z M110.1,328.3c-0.3,0-0.5,0-0.7-0.2l-0.6-0.3c-0.8-0.4-1.1-1.4-0.7-2.2
		c0.4-0.8,1.4-1.1,2.2-0.7l0.6,0.3c0.8,0.4,1.1,1.4,0.7,2.2C111.2,328,110.6,328.3,110.1,328.3z M260.5,326.3
		c-0.6,0-1.1-0.3-1.4-0.8c-0.4-0.8-0.1-1.8,0.6-2.2l0.6-0.3c0.8-0.4,1.8-0.1,2.2,0.6c0.4,0.8,0.1,1.8-0.6,2.2l-0.6,0.3
		C261,326.2,260.8,326.3,260.5,326.3z M102.4,324.1c-0.3,0-0.6-0.1-0.8-0.2l-0.6-0.3c-0.8-0.5-1-1.4-0.6-2.2c0.4-0.8,1.4-1,2.2-0.6
		l0.5,0.3c0.8,0.5,1,1.4,0.6,2.2C103.5,323.9,103,324.1,102.4,324.1z M268,321.9c-0.5,0-1.1-0.3-1.4-0.8c-0.5-0.8-0.2-1.8,0.5-2.2
		l0.5-0.3c0.8-0.5,1.7-0.2,2.2,0.5c0.5,0.8,0.3,1.7-0.5,2.2l-0.6,0.3C268.6,321.8,268.3,321.9,268,321.9z M95,319.5
		c-0.3,0-0.6-0.1-0.9-0.3l-0.6-0.4c-0.7-0.5-0.9-1.5-0.4-2.3c0.5-0.7,1.5-0.9,2.2-0.4l0.5,0.4c0.7,0.5,1,1.5,0.5,2.3
		C96.1,319.2,95.5,319.5,95,319.5z M275.3,317c-0.5,0-1-0.2-1.3-0.7c-0.5-0.7-0.3-1.7,0.4-2.3l0.5-0.4c0.7-0.5,1.7-0.3,2.3,0.4
		c0.5,0.7,0.3,1.7-0.4,2.3l-0.5,0.4C275.9,316.9,275.6,317,275.3,317z M87.9,314.5c-0.3,0-0.7-0.1-1-0.3l-0.5-0.4
		c-0.7-0.5-0.9-1.5-0.3-2.3c0.5-0.7,1.6-0.9,2.3-0.3l0.5,0.4c0.7,0.5,0.9,1.5,0.3,2.3C88.8,314.3,88.4,314.5,87.9,314.5z
		 M282.3,311.8c-0.5,0-1-0.2-1.3-0.6c-0.5-0.7-0.4-1.7,0.3-2.3l0.5-0.4c0.7-0.6,1.7-0.4,2.3,0.3c0.6,0.7,0.4,1.7-0.3,2.3l-0.5,0.4
		C283,311.7,282.6,311.8,282.3,311.8z M81,309.1c-0.4,0-0.7-0.1-1-0.4l-0.5-0.4c-0.7-0.6-0.8-1.6-0.2-2.3c0.6-0.7,1.6-0.8,2.3-0.2
		l0.5,0.4c0.7,0.6,0.8,1.6,0.2,2.3C81.9,308.9,81.5,309.1,81,309.1z M289,306.3c-0.5,0-0.9-0.2-1.2-0.6c-0.6-0.7-0.5-1.7,0.2-2.3
		l0.5-0.4c0.7-0.6,1.7-0.6,2.3,0.1c0.6,0.7,0.5,1.7-0.1,2.3l-0.5,0.4C289.8,306.1,289.4,306.3,289,306.3z M74.4,303.3
		c-0.4,0-0.8-0.2-1.1-0.4l-0.5-0.4c-0.7-0.6-0.7-1.6-0.1-2.3c0.6-0.7,1.6-0.7,2.3-0.1l0.5,0.4c0.7,0.6,0.7,1.6,0.1,2.3
		C75.3,303.2,74.9,303.3,74.4,303.3z M295.4,300.3c-0.4,0-0.8-0.2-1.1-0.5c-0.6-0.6-0.6-1.7,0-2.3l0.5-0.4c0.6-0.6,1.7-0.6,2.3,0
		c0.6,0.6,0.6,1.7,0,2.3l-0.5,0.5C296.2,300.1,295.8,300.3,295.4,300.3z M68.2,297.2c-0.4,0-0.8-0.2-1.2-0.5l-0.4-0.5
		c-0.6-0.6-0.6-1.7,0-2.3c0.7-0.6,1.7-0.6,2.3,0l0.5,0.5c0.6,0.7,0.6,1.7,0,2.3C69,297.1,68.6,297.2,68.2,297.2z M301.4,294
		c-0.4,0-0.8-0.1-1.1-0.4c-0.7-0.6-0.7-1.6-0.1-2.3l0.4-0.5c0.6-0.7,1.6-0.7,2.3-0.1c0.7,0.6,0.7,1.6,0.1,2.3l-0.4,0.5
		C302.3,293.8,301.9,294,301.4,294z M62.3,290.8c-0.5,0-0.9-0.2-1.2-0.6l-0.4-0.5c-0.6-0.7-0.5-1.7,0.2-2.3c0.7-0.6,1.7-0.5,2.3,0.2
		l0.4,0.5c0.6,0.7,0.5,1.7-0.2,2.3C63.1,290.7,62.7,290.8,62.3,290.8z M307.1,287.4c-0.4,0-0.7-0.1-1-0.4c-0.7-0.6-0.8-1.6-0.2-2.3
		l0.4-0.5c0.6-0.7,1.6-0.8,2.3-0.2c0.7,0.6,0.8,1.6,0.2,2.3l-0.4,0.5C308.1,287.2,307.6,287.4,307.1,287.4z M56.8,284.1
		c-0.5,0-1-0.2-1.3-0.6l-0.4-0.5c-0.5-0.7-0.4-1.7,0.3-2.3c0.7-0.6,1.7-0.4,2.3,0.3l0.4,0.5c0.5,0.7,0.4,1.7-0.3,2.3
		C57.5,283.9,57.2,284.1,56.8,284.1z M312.4,280.5c-0.3,0-0.7-0.1-0.9-0.3c-0.7-0.5-0.9-1.5-0.4-2.3l0.4-0.5
		c0.5-0.7,1.5-0.9,2.3-0.4c0.7,0.5,0.9,1.5,0.4,2.3l-0.4,0.5C313.5,280.3,313,280.5,312.4,280.5z M51.7,277c-0.5,0-1-0.2-1.3-0.7
		l-0.4-0.5c-0.5-0.7-0.3-1.7,0.4-2.2c0.7-0.5,1.7-0.3,2.2,0.4l0.4,0.5c0.5,0.7,0.3,1.7-0.4,2.3C52.3,276.9,52,277,51.7,277z
		 M317.4,273.3c-0.3,0-0.6-0.1-0.9-0.2c-0.8-0.5-1-1.5-0.5-2.3l0.4-0.5c0.5-0.8,1.5-1,2.2-0.5c0.7,0.5,1,1.5,0.5,2.2l-0.4,0.6
		C318.4,273.1,317.9,273.3,317.4,273.3z M46.9,269.7c-0.5,0-1.1-0.3-1.4-0.8l-0.3-0.6c-0.5-0.8-0.2-1.8,0.6-2.2
		c0.8-0.5,1.8-0.2,2.2,0.5l0.3,0.5c0.5,0.8,0.2,1.8-0.5,2.2C47.5,269.6,47.2,269.7,46.9,269.7z M321.9,265.9c-0.3,0-0.5-0.1-0.8-0.2
		c-0.8-0.4-1.1-1.4-0.6-2.2l0.3-0.6c0.4-0.8,1.4-1,2.2-0.6c0.8,0.4,1.1,1.4,0.6,2.2l-0.3,0.6C323.1,265.6,322.5,265.9,321.9,265.9z
		 M42.6,262.1c-0.6,0-1.1-0.3-1.4-0.9l-0.3-0.6c-0.4-0.8-0.1-1.8,0.7-2.2c0.8-0.4,1.8-0.1,2.2,0.7l0.3,0.6c0.4,0.8,0.1,1.8-0.7,2.2
		C43.1,262,42.8,262.1,42.6,262.1z M326.1,258.2c-0.3,0-0.5-0.1-0.7-0.2c-0.8-0.4-1.1-1.4-0.7-2.2l0.3-0.6c0.4-0.8,1.4-1.1,2.2-0.7
		c0.8,0.4,1.1,1.4,0.7,2.2l-0.3,0.6C327.2,257.8,326.7,258.2,326.1,258.2z M38.7,254.3c-0.6,0-1.2-0.3-1.5-0.9l-0.3-0.6
		c-0.4-0.8,0-1.8,0.8-2.2c0.8-0.4,1.8,0,2.2,0.8l0.3,0.6c0.4,0.8,0,1.8-0.8,2.2C39.1,254.3,38.9,254.3,38.7,254.3z M329.8,250.3
		c-0.2,0-0.4-0.1-0.7-0.1c-0.8-0.4-1.2-1.3-0.8-2.1l0.2-0.6c0.4-0.8,1.3-1.2,2.1-0.9c0.8,0.4,1.2,1.3,0.8,2.1l-0.3,0.6
		C331,249.9,330.4,250.3,329.8,250.3z M35.2,246.3c-0.6,0-1.2-0.4-1.5-1l-0.2-0.6c-0.3-0.8,0.1-1.8,0.9-2.1c0.8-0.3,1.8,0.1,2.1,0.9
		l0.2,0.6c0.3,0.8-0.1,1.8-0.9,2.1C35.6,246.3,35.3,246.3,35.2,246.3z M333.1,242.2c-0.2,0-0.4,0-0.6-0.1c-0.8-0.3-1.3-1.2-1-2.1
		l0.2-0.6c0.3-0.8,1.2-1.3,2.1-0.9c0.8,0.3,1.3,1.2,0.9,2.1l-0.2,0.6C334.4,241.8,333.7,242.2,333.1,242.2z M32.1,238.1
		c-0.7,0-1.3-0.4-1.5-1.1l-0.2-0.6c-0.3-0.8,0.2-1.8,1-2c0.9-0.3,1.8,0.2,2,1l0.2,0.6c0.3,0.9-0.2,1.8-1,2.1
		C32.5,238.1,32.3,238.1,32.1,238.1z M335.9,233.9c-0.2,0-0.3,0-0.5-0.1c-0.9-0.3-1.3-1.2-1.1-2l0.2-0.6c0.3-0.9,1.2-1.3,2-1.1
		c0.9,0.3,1.3,1.2,1.1,2l-0.2,0.6C337.2,233.5,336.6,233.9,335.9,233.9z M29.5,229.8c-0.7,0-1.4-0.5-1.5-1.2l-0.2-0.6
		c-0.2-0.9,0.3-1.8,1.1-2c0.9-0.2,1.8,0.3,2,1.1l0.2,0.6c0.2,0.9-0.3,1.8-1.1,2C29.8,229.8,29.6,229.8,29.5,229.8z M338.3,225.5
		c-0.1,0-0.3,0-0.4-0.1c-0.9-0.2-1.4-1.1-1.2-2l0.2-0.6c0.2-0.9,1.1-1.4,2-1.2c0.9,0.2,1.4,1.1,1.2,2l-0.1,0.6
		C339.7,225,339,225.5,338.3,225.5z M27.3,221.3c-0.7,0-1.4-0.5-1.6-1.3l-0.1-0.6c-0.2-0.9,0.4-1.7,1.2-1.9c0.9-0.2,1.7,0.3,1.9,1.2
		l0.1,0.6c0.2,0.9-0.3,1.7-1.2,1.9C27.6,221.3,27.5,221.3,27.3,221.3z M340.2,217c-0.1,0-0.2,0-0.3,0c-0.9-0.2-1.5-1-1.3-1.9
		l0.1-0.6c0.2-0.9,1-1.4,1.9-1.3c0.9,0.2,1.4,1,1.3,1.9l-0.1,0.6C341.7,216.4,341,217,340.2,217z M25.6,212.8
		c-0.8,0-1.5-0.5-1.6-1.3l-0.1-0.6c-0.1-0.9,0.5-1.7,1.3-1.9c0.9-0.1,1.7,0.4,1.9,1.3l0.1,0.6c0.1,0.9-0.4,1.7-1.3,1.9
		C25.8,212.7,25.7,212.8,25.6,212.8z M341.7,208.4c-0.1,0-0.2,0-0.2,0c-0.9-0.1-1.5-0.9-1.4-1.8l0.1-0.6c0.1-0.9,0.9-1.5,1.8-1.4
		c0.9,0.1,1.5,0.9,1.4,1.8l-0.1,0.6C343.2,207.8,342.5,208.4,341.7,208.4z M24.4,204.1c-0.8,0-1.5-0.6-1.6-1.4l-0.1-0.7
		c-0.1-0.9,0.5-1.7,1.4-1.8c0.9-0.1,1.7,0.5,1.8,1.4l0.1,0.6c0.1,0.9-0.5,1.7-1.4,1.8C24.5,204.1,24.5,204.1,24.4,204.1z
		 M342.7,199.7c0,0-0.1,0-0.1,0c-0.9-0.1-1.6-0.9-1.5-1.7l0.1-0.6c0.1-0.9,0.9-1.6,1.7-1.5c0.9,0.1,1.6,0.9,1.5,1.7l-0.1,0.7
		C344.2,199,343.5,199.7,342.7,199.7z M23.7,195.4c-0.9,0-1.6-0.7-1.6-1.5l0-0.7c0-0.9,0.6-1.7,1.5-1.7c0.9,0,1.7,0.6,1.7,1.5l0,0.6
		C25.3,194.6,24.7,195.3,23.7,195.4C23.7,195.4,23.7,195.4,23.7,195.4z M343.2,190.9C343.1,190.9,343.1,190.9,343.2,190.9
		c-0.9,0-1.7-0.8-1.6-1.7l0-0.6c0-0.9,0.8-1.6,1.6-1.6c0,0,0,0,0,0c0.9,0,1.6,0.8,1.6,1.7l0,0.7C344.7,190.2,344,190.9,343.2,190.9z
		 M23.4,186.7c-0.9,0-1.6-0.7-1.6-1.6v-0.7c0-0.9,0.7-1.6,1.6-1.6c0.9,0,1.6,0.7,1.6,1.6v0.6C25,185.9,24.3,186.7,23.4,186.7
		C23.4,186.7,23.4,186.7,23.4,186.7z M343.2,182.2c-0.9,0-1.6-0.7-1.6-1.6l0-0.6c0-0.9,0.7-1.6,1.6-1.7c0,0,0,0,0,0
		c0.9,0,1.6,0.7,1.6,1.6l0,0.6C344.8,181.4,344.1,182.2,343.2,182.2C343.2,182.2,343.2,182.2,343.2,182.2z M23.6,177.9
		C23.6,177.9,23.6,177.9,23.6,177.9c-1-0.1-1.7-0.8-1.6-1.7l0-0.7c0.1-0.9,0.8-1.6,1.7-1.5c0.9,0.1,1.6,0.8,1.5,1.7l0,0.6
		C25.2,177.3,24.5,177.9,23.6,177.9z M342.7,173.5c-0.8,0-1.5-0.6-1.6-1.5l0-0.6c-0.1-0.9,0.6-1.7,1.5-1.8c0.9-0.1,1.7,0.6,1.7,1.5
		l0.1,0.7c0.1,0.9-0.6,1.7-1.5,1.7C342.8,173.5,342.8,173.5,342.7,173.5z M24.3,169.2c-0.1,0-0.1,0-0.2,0c-0.9-0.1-1.5-0.9-1.4-1.8
		l0.1-0.6c0.1-0.9,0.9-1.5,1.8-1.4c0.9,0.1,1.5,0.9,1.4,1.8l-0.1,0.6C25.8,168.6,25.1,169.2,24.3,169.2z M341.8,164.8
		c-0.8,0-1.5-0.6-1.6-1.4l-0.1-0.6c-0.1-0.9,0.5-1.7,1.4-1.8c0.9-0.1,1.7,0.5,1.8,1.4l0.1,0.6c0.1,0.9-0.5,1.7-1.4,1.8
		C341.9,164.8,341.8,164.8,341.8,164.8z M25.5,160.6c-0.1,0-0.2,0-0.3,0c-0.9-0.1-1.5-1-1.3-1.9L24,158c0.1-0.9,1-1.5,1.9-1.3
		c0.9,0.1,1.5,1,1.3,1.9l-0.1,0.6C27,160,26.3,160.6,25.5,160.6z M340.3,156.1c-0.8,0-1.4-0.5-1.6-1.3l-0.1-0.6
		c-0.2-0.9,0.4-1.7,1.3-1.9c0.9-0.2,1.7,0.4,1.9,1.3l0.1,0.5c0.2,0.9-0.4,1.8-1.3,1.9C340.5,156.1,340.4,156.1,340.3,156.1z
		 M27.1,152c-0.1,0-0.2,0-0.4,0c-0.9-0.2-1.4-1.1-1.2-1.9l0.1-0.6c0.2-0.9,1.1-1.4,1.9-1.2c0.9,0.2,1.4,1.1,1.2,1.9l-0.1,0.6
		C28.5,151.5,27.9,152,27.1,152z M338.5,147.6c-0.7,0-1.4-0.5-1.6-1.2l-0.2-0.6c-0.2-0.9,0.3-1.7,1.2-2c0.9-0.2,1.8,0.3,2,1.2
		l0.2,0.6c0.2,0.9-0.3,1.7-1.2,2C338.7,147.6,338.6,147.6,338.5,147.6z M29.3,143.5c-0.1,0-0.3,0-0.4-0.1c-0.9-0.2-1.4-1.1-1.1-2
		l0.2-0.6c0.2-0.9,1.1-1.4,2-1.1c0.9,0.2,1.4,1.1,1.1,2l-0.2,0.6C30.6,143,30,143.5,29.3,143.5z M336.1,139.2
		c-0.7,0-1.3-0.4-1.6-1.1l-0.3-0.8c-0.3-0.8,0.2-1.8,1.1-2c0.8-0.3,1.8,0.2,2,1.1l0.3,0.8c0.3,0.9-0.2,1.8-1.1,2
		C336.4,139.2,336.3,139.2,336.1,139.2z M31.8,135.1c-0.2,0-0.3,0-0.5-0.1c-0.8-0.3-1.3-1.2-1-2.1l0.2-0.6c0.3-0.8,1.2-1.3,2.1-1
		c0.9,0.3,1.3,1.2,1,2.1l-0.2,0.6C33.1,134.7,32.5,135.1,31.8,135.1z M333.2,130.7c-0.7,0-1.3-0.4-1.5-1.1l-0.2-0.6
		c-0.3-0.8,0.1-1.8,1-2.1c0.8-0.3,1.8,0.1,2.1,1l0.2,0.6c0.3,0.8-0.1,1.8-1,2.1C333.6,130.7,333.4,130.7,333.2,130.7z M34.8,126.9
		c-0.2,0-0.4,0-0.6-0.1c-0.8-0.3-1.2-1.3-0.9-2.1l0.2-0.6c0.3-0.8,1.3-1.2,2.1-0.9c0.8,0.3,1.2,1.3,0.9,2.1l-0.2,0.6
		C36.1,126.6,35.5,126.9,34.8,126.9z M330,122.6c-0.6,0-1.2-0.4-1.5-1l-0.2-0.6c-0.4-0.8,0-1.8,0.8-2.1c0.8-0.3,1.8,0,2.1,0.8
		l0.3,0.6c0.4,0.8,0,1.8-0.8,2.1C330.4,122.6,330.2,122.6,330,122.6z M38.3,118.9c-0.2,0-0.5,0-0.7-0.1c-0.8-0.4-1.2-1.3-0.8-2.2
		l0.3-0.6c0.4-0.8,1.3-1.2,2.2-0.8c0.8,0.4,1.2,1.3,0.8,2.2l-0.3,0.6C39.5,118.6,38.9,118.9,38.3,118.9z M326.3,114.7
		c-0.6,0-1.2-0.3-1.4-0.9l-0.3-0.6c-0.4-0.8-0.1-1.8,0.7-2.2c0.8-0.4,1.8-0.1,2.2,0.7l0.3,0.6c0.4,0.8,0.1,1.8-0.7,2.2
		C326.8,114.6,326.6,114.7,326.3,114.7z M42.2,111.1c-0.3,0-0.5-0.1-0.8-0.2c-0.8-0.4-1.1-1.4-0.7-2.2l0.3-0.6
		c0.4-0.8,1.4-1.1,2.2-0.7c0.8,0.4,1.1,1.4,0.7,2.2l-0.3,0.6C43.3,110.8,42.8,111.1,42.2,111.1z M322.2,107c-0.6,0-1.1-0.3-1.4-0.8
		l-0.3-0.6c-0.4-0.8-0.2-1.8,0.6-2.2c0.8-0.4,1.8-0.2,2.2,0.6l0.3,0.6c0.4,0.8,0.2,1.8-0.6,2.2C322.8,106.9,322.5,107,322.2,107z
		 M46.5,103.5c-0.3,0-0.6-0.1-0.8-0.2c-0.8-0.5-1-1.5-0.6-2.2l0.3-0.6c0.5-0.8,1.5-1,2.2-0.5c0.8,0.5,1,1.5,0.5,2.2l-0.3,0.5
		C47.6,103.2,47.1,103.5,46.5,103.5z M317.7,99.5c-0.5,0-1.1-0.3-1.4-0.7l-0.3-0.5c-0.5-0.8-0.3-1.8,0.5-2.2
		c0.7-0.5,1.7-0.3,2.2,0.5L319,97c0.5,0.8,0.3,1.8-0.5,2.2C318.3,99.4,318,99.5,317.7,99.5z M51.2,96.2c-0.3,0-0.6-0.1-0.9-0.3
		c-0.7-0.5-0.9-1.5-0.4-2.3l0.4-0.5c0.5-0.7,1.5-0.9,2.2-0.4c0.7,0.5,0.9,1.5,0.4,2.3l-0.4,0.5C52.2,95.9,51.7,96.2,51.2,96.2z
		 M312.8,92.3c-0.5,0-1-0.2-1.3-0.7l-0.4-0.5c-0.5-0.7-0.4-1.7,0.3-2.3c0.7-0.5,1.7-0.4,2.3,0.4l0.4,0.5c0.5,0.7,0.4,1.7-0.4,2.3
		C313.4,92.2,313.1,92.3,312.8,92.3z M56.3,89.1c-0.3,0-0.7-0.1-1-0.3c-0.7-0.5-0.8-1.6-0.3-2.3l0.4-0.5c0.5-0.7,1.6-0.8,2.3-0.3
		c0.7,0.5,0.8,1.6,0.3,2.3l-0.4,0.5C57.3,88.9,56.8,89.1,56.3,89.1z M307.4,85.4c-0.5,0-0.9-0.2-1.3-0.6l-0.4-0.5
		c-0.6-0.7-0.5-1.7,0.2-2.3c0.7-0.6,1.7-0.5,2.3,0.2l0.4,0.5c0.6,0.7,0.5,1.7-0.2,2.3C308.2,85.3,307.8,85.4,307.4,85.4z M61.8,82.3
		c-0.4,0-0.7-0.1-1.1-0.4c-0.7-0.6-0.8-1.6-0.2-2.3l0.4-0.5c0.6-0.7,1.6-0.8,2.3-0.2c0.7,0.6,0.8,1.6,0.2,2.3l-0.4,0.5
		C62.7,82.1,62.3,82.3,61.8,82.3z M301.8,78.8c-0.4,0-0.9-0.2-1.2-0.5l-0.4-0.5c-0.6-0.7-0.6-1.7,0.1-2.3c0.7-0.6,1.7-0.6,2.3,0.1
		l0.4,0.5c0.6,0.7,0.5,1.7-0.1,2.3C302.5,78.7,302.1,78.8,301.8,78.8z M67.7,75.8c-0.4,0-0.8-0.1-1.1-0.4c-0.6-0.6-0.7-1.7-0.1-2.3
		l0.5-0.5c0.6-0.7,1.6-0.7,2.3-0.1c0.6,0.6,0.7,1.6,0,2.3l-0.4,0.5C68.5,75.7,68.1,75.8,67.7,75.8z M295.7,72.5
		c-0.4,0-0.8-0.2-1.2-0.5l-0.4-0.5c-0.6-0.6-0.7-1.6,0-2.3c0.6-0.6,1.6-0.7,2.3,0l0.5,0.5c0.6,0.6,0.6,1.7,0,2.3
		C296.6,72.4,296.1,72.5,295.7,72.5z M73.9,69.7c-0.4,0-0.9-0.2-1.2-0.5c-0.6-0.7-0.6-1.7,0.1-2.3l0.5-0.4c0.6-0.6,1.7-0.6,2.3,0.1
		c0.6,0.7,0.6,1.7-0.1,2.3L75,69.2C74.7,69.5,74.3,69.7,73.9,69.7z M289.3,66.6c-0.4,0-0.8-0.1-1.1-0.4l-0.5-0.4
		c-0.7-0.6-0.7-1.6-0.2-2.3c0.6-0.7,1.6-0.7,2.3-0.2l0.5,0.4c0.7,0.6,0.7,1.6,0.1,2.3C290.2,66.4,289.8,66.6,289.3,66.6z M80.4,63.9
		c-0.5,0-0.9-0.2-1.2-0.6c-0.6-0.7-0.5-1.7,0.2-2.3l0.5-0.4c0.7-0.6,1.7-0.5,2.3,0.2c0.6,0.7,0.5,1.7-0.2,2.3l-0.5,0.4
		C81.1,63.8,80.7,63.9,80.4,63.9z M282.7,61c-0.4,0-0.7-0.1-1-0.3l-0.5-0.4c-0.7-0.5-0.8-1.6-0.3-2.3c0.6-0.7,1.6-0.8,2.3-0.3
		l0.5,0.4c0.7,0.6,0.8,1.6,0.3,2.3C283.6,60.7,283.1,61,282.7,61z M87.2,58.4c-0.5,0-1-0.2-1.3-0.6c-0.5-0.7-0.4-1.7,0.3-2.3
		l0.5-0.4c0.7-0.5,1.7-0.4,2.3,0.3c0.5,0.7,0.4,1.7-0.3,2.3l-0.5,0.4C87.9,58.3,87.5,58.4,87.2,58.4z M275.7,55.7
		c-0.3,0-0.6-0.1-0.9-0.3l-0.5-0.4c-0.7-0.5-0.9-1.5-0.4-2.3c0.5-0.7,1.5-0.9,2.2-0.4l0.5,0.4c0.7,0.5,0.9,1.5,0.4,2.2
		C276.7,55.5,276.2,55.7,275.7,55.7z M94.3,53.4c-0.5,0-1-0.3-1.4-0.7c-0.5-0.7-0.3-1.8,0.4-2.2l0.5-0.4c0.7-0.5,1.7-0.3,2.2,0.4
		c0.5,0.8,0.3,1.8-0.5,2.2l-0.5,0.4C94.9,53.3,94.6,53.4,94.3,53.4z M268.4,50.9c-0.3,0-0.6-0.1-0.9-0.3l-0.5-0.3
		c-0.8-0.5-1-1.5-0.5-2.2c0.5-0.8,1.5-1,2.2-0.5l0.6,0.3c0.8,0.5,1,1.5,0.5,2.2C269.5,50.6,268.9,50.9,268.4,50.9z M101.7,48.7
		c-0.5,0-1.1-0.3-1.4-0.8c-0.4-0.8-0.2-1.8,0.6-2.2l0.6-0.3c0.8-0.4,1.8-0.2,2.2,0.6c0.5,0.8,0.2,1.8-0.6,2.2l-0.6,0.3
		C102.2,48.7,102,48.7,101.7,48.7z M260.9,46.5c-0.3,0-0.5-0.1-0.8-0.2l-0.6-0.3c-0.8-0.4-1.1-1.4-0.6-2.2c0.4-0.8,1.4-1.1,2.2-0.6
		l0.6,0.3c0.8,0.4,1.1,1.4,0.6,2.2C262,46.2,261.5,46.5,260.9,46.5z M109.3,44.5c-0.6,0-1.2-0.3-1.4-0.9c-0.4-0.8-0.1-1.8,0.7-2.2
		l0.6-0.3c0.8-0.4,1.8-0.1,2.2,0.7c0.4,0.8,0.1,1.8-0.7,2.2l-0.6,0.3C109.8,44.4,109.6,44.5,109.3,44.5z M253.1,42.4
		c-0.2,0-0.5,0-0.7-0.2l-0.6-0.3c-0.8-0.4-1.1-1.4-0.8-2.2c0.4-0.8,1.3-1.1,2.2-0.8l0.6,0.3c0.8,0.4,1.1,1.4,0.8,2.2
		C254.3,42.1,253.7,42.4,253.1,42.4z M117.2,40.7c-0.6,0-1.2-0.4-1.5-1c-0.4-0.8,0-1.8,0.8-2.1l0.6-0.3c0.8-0.4,1.8,0,2.1,0.8
		c0.4,0.8,0,1.8-0.8,2.1l-0.6,0.3C117.6,40.6,117.4,40.7,117.2,40.7z M245.2,38.8c-0.2,0-0.4,0-0.6-0.1l-0.6-0.2
		c-0.8-0.3-1.2-1.3-0.9-2.1c0.3-0.8,1.3-1.2,2.1-0.9l0.6,0.2c0.8,0.4,1.2,1.3,0.9,2.1C246.4,38.4,245.8,38.8,245.2,38.8z
		 M125.2,37.3c-0.6,0-1.3-0.4-1.5-1c-0.3-0.8,0.1-1.8,0.9-2.1l0.6-0.2c0.8-0.3,1.8,0.1,2.1,0.9c0.3,0.8-0.1,1.8-0.9,2.1l-0.6,0.2
		C125.6,37.3,125.4,37.3,125.2,37.3z M237,35.7c-0.2,0-0.4,0-0.5-0.1l-0.6-0.2c-0.8-0.3-1.3-1.2-1-2.1c0.3-0.8,1.2-1.3,2.1-1
		l0.6,0.2c0.8,0.3,1.3,1.2,1,2.1C238.3,35.2,237.7,35.7,237,35.7z M133.4,34.4c-0.7,0-1.3-0.4-1.5-1.1c-0.3-0.8,0.2-1.8,1-2l0.6-0.2
		c0.9-0.3,1.8,0.2,2,1c0.3,0.8-0.2,1.8-1,2l-0.6,0.2C133.8,34.3,133.6,34.4,133.4,34.4z M228.7,32.9c-0.2,0-0.3,0-0.5-0.1l-0.6-0.2
		c-0.9-0.3-1.3-1.2-1.1-2c0.3-0.9,1.2-1.4,2-1.1l0.6,0.2c0.8,0.3,1.3,1.2,1.1,2C230.1,32.5,229.4,32.9,228.7,32.9z M141.8,31.9
		c-0.7,0-1.4-0.5-1.6-1.2c-0.2-0.9,0.3-1.7,1.1-2l0.6-0.2c0.9-0.2,1.8,0.3,2,1.1c0.2,0.9-0.3,1.8-1.2,2l-0.6,0.2
		C142.1,31.8,141.9,31.9,141.8,31.9z M220.3,30.7c-0.1,0-0.2,0-0.4,0l-0.6-0.2c-0.9-0.2-1.4-1.1-1.2-1.9c0.2-0.9,1.1-1.4,2-1.2
		l0.6,0.1c0.9,0.2,1.4,1.1,1.2,2C221.7,30.2,221,30.7,220.3,30.7z M150.3,29.8c-0.8,0-1.4-0.5-1.6-1.3c-0.2-0.9,0.4-1.7,1.3-1.9
		l0.6-0.1c0.9-0.2,1.7,0.4,1.9,1.3c0.2,0.9-0.4,1.7-1.3,1.9l-0.6,0.1C150.5,29.8,150.4,29.8,150.3,29.8z M211.7,28.9
		c-0.1,0-0.2,0-0.3,0l-0.6-0.1c-0.9-0.2-1.5-1-1.3-1.9c0.2-0.9,1-1.5,1.9-1.3l0.6,0.1c0.9,0.2,1.5,1,1.3,1.9
		C213.2,28.3,212.5,28.9,211.7,28.9z M158.9,28.2c-0.8,0-1.5-0.6-1.6-1.4c-0.1-0.9,0.5-1.7,1.4-1.8l0.6-0.1c0.9-0.1,1.7,0.5,1.8,1.4
		c0.1,0.9-0.5,1.7-1.4,1.8l-0.6,0.1C159.1,28.2,159,28.2,158.9,28.2z M203.1,27.6c-0.1,0-0.1,0-0.2,0l-0.6-0.1
		c-0.9-0.1-1.5-0.9-1.4-1.8c0.1-0.9,0.9-1.5,1.8-1.4l0.7,0.1c0.9,0.1,1.5,0.9,1.4,1.8C204.6,27,203.9,27.6,203.1,27.6z M167.5,27.1
		c-0.8,0-1.5-0.6-1.6-1.5c-0.1-0.9,0.6-1.7,1.4-1.8l0.7-0.1c0.9-0.1,1.7,0.6,1.8,1.5c0.1,0.9-0.6,1.7-1.5,1.8l-0.6,0.1
		C167.7,27.1,167.6,27.1,167.5,27.1z M194.4,26.7c0,0-0.1,0-0.1,0l-0.6,0c-0.9-0.1-1.6-0.8-1.5-1.7c0.1-0.9,0.8-1.6,1.7-1.5l0.7,0
		c0.9,0.1,1.6,0.8,1.5,1.7C196,26.1,195.2,26.7,194.4,26.7z M176.3,26.5c-0.9,0-1.6-0.7-1.6-1.5c0-0.9,0.7-1.7,1.6-1.7l0.7,0
		c0.9,0,1.6,0.7,1.7,1.5c0,0.9-0.7,1.7-1.6,1.7L176.3,26.5C176.3,26.5,176.3,26.5,176.3,26.5z M185.7,26.3
		C185.7,26.3,185.6,26.3,185.7,26.3l-0.7,0c-0.9,0-1.6-0.7-1.6-1.6c0-0.9,0.7-1.6,1.6-1.6c0,0,0,0,0,0l0.7,0c0.9,0,1.6,0.8,1.6,1.6
		C187.3,25.6,186.5,26.3,185.7,26.3z"/>
	<path class="st1" d="M184.6,299.3c-0.9,0-1.6-0.7-1.6-1.6c0-0.9,0.7-1.6,1.6-1.6l0.6,0c0,0,0,0,0,0c0.9,0,1.6,0.7,1.6,1.6
		c0,0.9-0.7,1.6-1.6,1.6L184.6,299.3C184.6,299.3,184.6,299.3,184.6,299.3z M176.5,299c0,0-0.1,0-0.1,0l-0.7-0.1
		c-0.9,0-1.6-0.8-1.5-1.7c0.1-0.9,0.9-1.6,1.7-1.5l0.6,0c0.9,0,1.6,0.8,1.5,1.7C178.1,298.4,177.4,299,176.5,299z M193.4,298.9
		c-0.8,0-1.5-0.6-1.6-1.5c-0.1-0.9,0.6-1.7,1.5-1.7l0.6-0.1c0.9-0.1,1.7,0.6,1.8,1.5c0.1,0.9-0.6,1.7-1.5,1.8l-0.7,0.1
		C193.5,298.9,193.4,298.9,193.4,298.9z M167.8,298.1c-0.1,0-0.2,0-0.2,0l-0.7-0.1c-0.9-0.1-1.5-1-1.4-1.8c0.1-0.9,1-1.5,1.9-1.4
		l0.6,0.1c0.9,0.1,1.5,0.9,1.4,1.8C169.3,297.5,168.6,298.1,167.8,298.1z M202.1,297.8c-0.8,0-1.5-0.6-1.6-1.4
		c-0.1-0.9,0.4-1.7,1.3-1.9l0.6-0.1c0.9-0.2,1.7,0.4,1.9,1.3c0.2,0.9-0.4,1.7-1.3,1.9l-0.6,0.1C202.3,297.8,202.2,297.8,202.1,297.8
		z M159.2,296.5c-0.1,0-0.2,0-0.4,0l-0.6-0.2c-0.9-0.2-1.4-1.1-1.2-1.9c0.2-0.9,1.1-1.4,1.9-1.2l0.6,0.2c0.9,0.2,1.4,1.1,1.2,1.9
		C160.6,296,160,296.5,159.2,296.5z M210.6,296c-0.7,0-1.4-0.5-1.6-1.2c-0.2-0.9,0.3-1.7,1.2-1.9l0.6-0.2c0.9-0.2,1.8,0.3,2,1.2
		c0.2,0.9-0.3,1.7-1.2,2L211,296C210.9,296,210.8,296,210.6,296z M150.8,294.3c-0.2,0-0.3,0-0.5-0.1l-0.6-0.2
		c-0.9-0.3-1.3-1.2-1.1-2c0.3-0.9,1.2-1.3,2-1.1l0.6,0.2c0.8,0.3,1.3,1.2,1.1,2C152.1,293.8,151.5,294.3,150.8,294.3z M219,293.6
		c-0.7,0-1.3-0.4-1.5-1.1c-0.3-0.9,0.2-1.8,1-2l0.6-0.2c0.9-0.3,1.8,0.2,2,1c0.3,0.8-0.2,1.8-1,2l-0.6,0.2
		C219.4,293.6,219.2,293.6,219,293.6z M142.5,291.4c-0.2,0-0.4,0-0.6-0.1l-0.6-0.2c-0.8-0.3-1.2-1.3-0.9-2.1
		c0.3-0.8,1.3-1.2,2.1-0.9l0.6,0.2c0.8,0.3,1.2,1.3,0.9,2.1C143.8,291,143.2,291.4,142.5,291.4z M227.3,290.6c-0.6,0-1.2-0.4-1.5-1
		c-0.3-0.8,0.1-1.8,0.9-2.1l0.6-0.3c0.8-0.4,1.8,0,2.1,0.9c0.4,0.8,0,1.8-0.9,2.1l-0.6,0.2C227.7,290.5,227.5,290.6,227.3,290.6z
		 M134.5,287.8c-0.2,0-0.5,0-0.7-0.2l-0.6-0.3c-0.8-0.4-1.1-1.3-0.7-2.2c0.4-0.8,1.4-1.1,2.2-0.7l0.6,0.3c0.8,0.4,1.1,1.4,0.7,2.2
		C135.7,287.5,135.1,287.8,134.5,287.8z M235.2,286.9c-0.6,0-1.2-0.3-1.4-0.9c-0.4-0.8-0.1-1.8,0.7-2.2l0.6-0.3
		c0.8-0.4,1.8-0.1,2.2,0.7c0.4,0.8,0.1,1.8-0.7,2.2l-0.6,0.3C235.7,286.9,235.4,286.9,235.2,286.9z M126.8,283.7
		c-0.3,0-0.6-0.1-0.8-0.2l-0.6-0.3c-0.8-0.5-1-1.5-0.6-2.2c0.4-0.8,1.4-1,2.2-0.6l0.6,0.3c0.8,0.5,1,1.4,0.6,2.2
		C127.9,283.4,127.4,283.7,126.8,283.7z M242.8,282.7c-0.5,0-1.1-0.3-1.4-0.8c-0.5-0.8-0.2-1.8,0.5-2.2l0.5-0.3
		c0.8-0.5,1.8-0.2,2.2,0.5c0.5,0.8,0.2,1.7-0.5,2.2l-0.6,0.3C243.4,282.6,243.1,282.7,242.8,282.7z M119.4,279
		c-0.3,0-0.6-0.1-0.9-0.3l-0.5-0.4c-0.7-0.5-0.9-1.5-0.4-2.3c0.5-0.7,1.5-0.9,2.2-0.4l0.5,0.4c0.7,0.5,0.9,1.5,0.4,2.3
		C120.5,278.7,119.9,279,119.4,279z M250.1,277.8c-0.5,0-1-0.2-1.3-0.7c-0.5-0.7-0.4-1.7,0.3-2.3l0.5-0.4c0.7-0.5,1.7-0.4,2.3,0.4
		c0.5,0.7,0.4,1.7-0.4,2.3l-0.5,0.4C250.8,277.7,250.4,277.8,250.1,277.8z M112.5,273.7c-0.4,0-0.7-0.1-1-0.4l-0.5-0.4
		c-0.7-0.6-0.8-1.6-0.2-2.3c0.6-0.7,1.6-0.8,2.3-0.2l0.5,0.4c0.7,0.6,0.8,1.6,0.2,2.3C113.4,273.5,112.9,273.7,112.5,273.7z
		 M257,272.4c-0.5,0-0.9-0.2-1.2-0.6c-0.6-0.7-0.5-1.7,0.2-2.3l0.5-0.4c0.7-0.6,1.7-0.5,2.3,0.2c0.6,0.7,0.5,1.7-0.2,2.3L258,272
		C257.7,272.3,257.3,272.4,257,272.4z M105.9,267.9c-0.4,0-0.8-0.2-1.1-0.5l-0.5-0.4c-0.6-0.6-0.7-1.6,0-2.3c0.6-0.6,1.7-0.7,2.3,0
		l0.5,0.4c0.6,0.6,0.7,1.7,0,2.3C106.8,267.8,106.3,267.9,105.9,267.9z M263.4,266.5c-0.4,0-0.8-0.1-1.1-0.5c-0.6-0.6-0.6-1.7,0-2.3
		l0.4-0.5c0.6-0.6,1.7-0.6,2.3,0c0.6,0.6,0.6,1.7,0,2.3l-0.4,0.5C264.2,266.4,263.8,266.5,263.4,266.5z M99.8,261.6
		c-0.4,0-0.9-0.2-1.2-0.5l-0.4-0.5c-0.6-0.7-0.5-1.7,0.1-2.3c0.7-0.6,1.7-0.5,2.3,0.1l0.4,0.5c0.6,0.7,0.5,1.7-0.1,2.3
		C100.6,261.5,100.2,261.6,99.8,261.6z M269.4,260.1c-0.4,0-0.8-0.1-1.1-0.4c-0.7-0.6-0.8-1.6-0.2-2.3l0.4-0.5
		c0.6-0.7,1.6-0.8,2.3-0.2c0.7,0.6,0.8,1.6,0.2,2.3l-0.4,0.5C270.3,259.9,269.8,260.1,269.4,260.1z M94.3,254.9
		c-0.5,0-1-0.2-1.3-0.6l-0.4-0.5c-0.5-0.7-0.4-1.7,0.3-2.3c0.7-0.5,1.7-0.4,2.3,0.3l0.4,0.5c0.5,0.7,0.4,1.7-0.3,2.3
		C94.9,254.8,94.6,254.9,94.3,254.9z M274.8,253.3c-0.3,0-0.7-0.1-1-0.3c-0.7-0.5-0.9-1.5-0.3-2.3l0.4-0.5c0.5-0.7,1.5-0.9,2.3-0.4
		c0.7,0.5,0.9,1.5,0.4,2.3l-0.4,0.5C275.8,253,275.3,253.3,274.8,253.3z M89.2,247.8c-0.5,0-1-0.3-1.4-0.7l-0.4-0.6
		c-0.5-0.8-0.3-1.8,0.5-2.2c0.8-0.5,1.8-0.3,2.2,0.5l0.3,0.5c0.5,0.7,0.3,1.7-0.5,2.2C89.8,247.7,89.5,247.8,89.2,247.8z M279.7,246
		c-0.3,0-0.6-0.1-0.8-0.2c-0.8-0.5-1-1.5-0.5-2.2l0.3-0.6c0.5-0.8,1.5-1,2.2-0.5c0.8,0.5,1,1.5,0.5,2.2l-0.3,0.5
		C280.8,245.7,280.3,246,279.7,246z M84.8,240.2c-0.6,0-1.1-0.3-1.4-0.8l-0.3-0.6c-0.4-0.8-0.1-1.8,0.7-2.2c0.8-0.4,1.8-0.1,2.2,0.7
		l0.3,0.6c0.4,0.8,0.1,1.8-0.7,2.2C85.3,240.2,85,240.2,84.8,240.2z M284,238.4c-0.2,0-0.5-0.1-0.7-0.2c-0.8-0.4-1.1-1.4-0.7-2.2
		l0.3-0.6c0.4-0.8,1.4-1.1,2.2-0.7c0.8,0.4,1.1,1.4,0.7,2.2l-0.3,0.6C285.2,238.1,284.6,238.4,284,238.4z M80.9,232.4
		c-0.6,0-1.2-0.4-1.5-1l-0.3-0.6c-0.4-0.8,0-1.8,0.8-2.1c0.8-0.4,1.8,0,2.1,0.8l0.3,0.6c0.4,0.8,0,1.8-0.8,2.1
		C81.3,232.3,81.1,232.4,80.9,232.4z M287.8,230.5c-0.2,0-0.4,0-0.6-0.1c-0.8-0.3-1.2-1.3-0.9-2.1l0.2-0.6c0.3-0.8,1.3-1.2,2.1-0.9
		c0.8,0.4,1.2,1.3,0.9,2.1l-0.2,0.5C289,230.1,288.4,230.5,287.8,230.5z M77.7,224.3c-0.7,0-1.3-0.4-1.5-1.1l-0.2-0.6
		c-0.3-0.8,0.2-1.8,1-2.1c0.8-0.3,1.8,0.1,2.1,1l0.2,0.6c0.3,0.8-0.1,1.8-1,2.1C78,224.2,77.8,224.3,77.7,224.3z M290.9,222.3
		c-0.2,0-0.3,0-0.5-0.1c-0.9-0.3-1.3-1.2-1-2.1l0.2-0.6c0.3-0.9,1.2-1.3,2.1-1c0.8,0.3,1.3,1.2,1,2l-0.2,0.6
		C292.2,221.9,291.6,222.3,290.9,222.3z M75.1,215.9c-0.7,0-1.4-0.5-1.6-1.2l-0.2-0.6c-0.2-0.9,0.3-1.7,1.2-2c0.9-0.2,1.7,0.3,2,1.2
		l0.2,0.6c0.2,0.9-0.3,1.8-1.1,2C75.3,215.9,75.2,215.9,75.1,215.9z M293.4,213.9c-0.1,0-0.3,0-0.4-0.1c-0.9-0.2-1.4-1.1-1.2-2
		l0.1-0.6c0.2-0.9,1.1-1.4,2-1.2c0.9,0.2,1.4,1.1,1.2,2l-0.1,0.6C294.7,213.4,294.1,213.9,293.4,213.9z M73.1,207.4
		c-0.8,0-1.4-0.5-1.6-1.3l-0.1-0.7c-0.2-0.9,0.4-1.7,1.3-1.9c0.9-0.2,1.7,0.4,1.9,1.3l0.1,0.6c0.2,0.9-0.4,1.7-1.3,1.9
		C73.3,207.4,73.2,207.4,73.1,207.4z M295.2,205.4c-0.1,0-0.2,0-0.3,0c-0.9-0.1-1.5-1-1.3-1.9l0.1-0.6c0.1-0.9,1-1.5,1.9-1.3
		c0.9,0.1,1.5,1,1.3,1.9l-0.1,0.6C296.6,204.8,295.9,205.4,295.2,205.4z M71.8,198.7c-0.8,0-1.5-0.6-1.6-1.4l-0.1-0.7
		c-0.1-0.9,0.5-1.7,1.4-1.8c0.9-0.1,1.7,0.6,1.8,1.4l0.1,0.6c0.1,0.9-0.5,1.7-1.4,1.8C71.9,198.7,71.8,198.7,71.8,198.7z
		 M296.3,196.7c-0.1,0-0.1,0-0.2,0c-0.9-0.1-1.5-0.9-1.5-1.8l0.1-0.6c0.1-0.9,0.9-1.5,1.7-1.5c0.9,0.1,1.5,0.9,1.5,1.8l-0.1,0.7
		C297.8,196.1,297.1,196.7,296.3,196.7z M71.2,190c-0.9,0-1.6-0.7-1.6-1.6l0-0.7c0-0.9,0.7-1.6,1.6-1.7c0.9,0,1.6,0.7,1.7,1.6l0,0.6
		C72.8,189.2,72.1,190,71.2,190C71.2,190,71.2,190,71.2,190z M296.8,188C296.7,188,296.7,188,296.8,188c-0.9,0-1.6-0.8-1.6-1.7v-0.6
		c0-0.9,0.7-1.6,1.6-1.6h0c0.9,0,1.6,0.7,1.6,1.6l0,0.7C298.4,187.2,297.6,188,296.8,188z M71.2,181.3
		C71.2,181.3,71.2,181.3,71.2,181.3c-1,0-1.7-0.8-1.6-1.7l0-0.7c0-0.9,0.8-1.6,1.7-1.5c0.9,0,1.6,0.8,1.5,1.7l0,0.6
		C72.8,180.6,72.1,181.3,71.2,181.3z M296.5,179.2c-0.9,0-1.6-0.6-1.6-1.5l0-0.6c-0.1-0.9,0.6-1.7,1.5-1.7c0.9-0.1,1.7,0.6,1.7,1.5
		l0,0.6c0.1,0.9-0.6,1.7-1.5,1.8C296.6,179.2,296.6,179.2,296.5,179.2z M72,172.5c-0.1,0-0.1,0-0.2,0c-0.9-0.1-1.5-0.9-1.4-1.8
		l0.1-0.6c0.1-0.9,0.9-1.5,1.8-1.4c0.9,0.1,1.5,0.9,1.4,1.8l-0.1,0.6C73.5,171.9,72.8,172.5,72,172.5z M295.6,170.5
		c-0.8,0-1.5-0.6-1.6-1.4l-0.1-0.6c-0.1-0.9,0.5-1.7,1.4-1.8c0.9-0.1,1.7,0.5,1.8,1.4l0.1,0.7c0.1,0.9-0.5,1.7-1.4,1.8
		C295.8,170.5,295.7,170.5,295.6,170.5z M73.4,163.9c-0.1,0-0.2,0-0.3,0c-0.9-0.2-1.4-1-1.3-1.9l0.1-0.6c0.2-0.9,1-1.4,1.9-1.3
		c0.9,0.2,1.4,1,1.2,1.9l-0.1,0.6C74.8,163.4,74.1,163.9,73.4,163.9z M294,161.9c-0.7,0-1.4-0.5-1.6-1.3l-0.1-0.6
		c-0.2-0.9,0.4-1.7,1.2-1.9c0.9-0.2,1.7,0.4,1.9,1.2l0.1,0.6c0.2,0.9-0.4,1.7-1.2,1.9C294.3,161.9,294.2,161.9,294,161.9z
		 M75.5,155.4c-0.1,0-0.3,0-0.4-0.1c-0.9-0.2-1.3-1.1-1.1-2l0.2-0.6c0.2-0.9,1.1-1.4,2-1.1c0.9,0.3,1.4,1.2,1.1,2l-0.2,0.6
		C76.8,154.9,76.2,155.4,75.5,155.4z M291.8,153.4c-0.7,0-1.3-0.4-1.5-1.1l-0.2-0.6c-0.3-0.9,0.2-1.8,1-2.1c0.8-0.3,1.7,0.1,2,1
		l0.2,0.8c0.3,0.9-0.2,1.8-1.1,2C292.1,153.4,292,153.4,291.8,153.4z M78.2,147.1c-0.2,0-0.4,0-0.6-0.1c-0.8-0.3-1.3-1.2-0.9-2.1
		l0.2-0.6c0.3-0.8,1.3-1.3,2.1-0.9c0.8,0.3,1.3,1.3,0.9,2.1l-0.2,0.6C79.5,146.7,78.9,147.1,78.2,147.1z M288.9,145.1
		c-0.7,0-1.3-0.4-1.5-1l-0.2-0.6c-0.3-0.8,0.1-1.8,0.9-2.1c0.8-0.3,1.8,0.1,2.1,0.9l0.2,0.6c0.3,0.8-0.1,1.8-0.9,2.1
		C289.3,145,289.1,145.1,288.9,145.1z M81.6,139c-0.2,0-0.5-0.1-0.7-0.1c-0.8-0.4-1.2-1.3-0.8-2.2l0.3-0.6c0.4-0.8,1.3-1.2,2.2-0.8
		c0.8,0.4,1.2,1.3,0.8,2.2l-0.3,0.6C82.8,138.7,82.2,139,81.6,139z M285.4,137c-0.6,0-1.2-0.3-1.5-0.9l-0.3-0.6
		c-0.4-0.8-0.1-1.8,0.7-2.2c0.8-0.4,1.8-0.1,2.2,0.7l0.3,0.6c0.4,0.8,0.1,1.8-0.8,2.2C285.8,137,285.6,137,285.4,137z M85.6,131.2
		c-0.3,0-0.5-0.1-0.8-0.2c-0.8-0.4-1.1-1.4-0.6-2.2l0.3-0.6c0.4-0.8,1.4-1,2.2-0.6c0.8,0.4,1,1.4,0.6,2.2l-0.3,0.6
		C86.7,130.9,86.1,131.2,85.6,131.2z M281.2,129.3c-0.6,0-1.1-0.3-1.4-0.8l-0.3-0.6c-0.5-0.8-0.2-1.8,0.6-2.2
		c0.8-0.5,1.8-0.2,2.2,0.6l0.3,0.6c0.5,0.8,0.2,1.8-0.6,2.2C281.8,129.3,281.5,129.3,281.2,129.3z M90.1,123.8
		c-0.3,0-0.6-0.1-0.9-0.3c-0.7-0.5-0.9-1.5-0.4-2.2l0.4-0.6c0.5-0.7,1.5-0.9,2.3-0.4c0.7,0.5,0.9,1.5,0.4,2.2l-0.4,0.5
		C91.2,123.5,90.7,123.8,90.1,123.8z M276.5,122c-0.5,0-1-0.2-1.3-0.7l-0.4-0.5c-0.5-0.7-0.3-1.7,0.4-2.3c0.7-0.5,1.7-0.3,2.3,0.4
		l0.4,0.5c0.5,0.7,0.3,1.7-0.4,2.3C277.2,121.9,276.8,122,276.5,122z M95.3,116.7c-0.3,0-0.7-0.1-1-0.3c-0.7-0.6-0.8-1.6-0.3-2.3
		l0.4-0.5c0.6-0.7,1.6-0.8,2.3-0.3c0.7,0.6,0.8,1.6,0.3,2.3l-0.4,0.5C96.2,116.5,95.7,116.7,95.3,116.7z M271.3,115
		c-0.5,0-0.9-0.2-1.3-0.6l-0.4-0.5c-0.6-0.7-0.5-1.7,0.2-2.3c0.7-0.6,1.7-0.5,2.3,0.2l0.4,0.5c0.6,0.7,0.5,1.7-0.2,2.3
		C272,114.9,271.6,115,271.3,115z M100.9,110c-0.4,0-0.8-0.1-1.1-0.4c-0.7-0.6-0.7-1.6-0.1-2.3l0.4-0.5c0.6-0.7,1.6-0.7,2.3-0.1
		c0.7,0.6,0.7,1.6,0.1,2.3l-0.4,0.5C101.8,109.9,101.4,110,100.9,110z M265.5,108.4c-0.4,0-0.9-0.2-1.2-0.5l-0.4-0.5
		c-0.6-0.6-0.6-1.7,0-2.3c0.6-0.6,1.7-0.6,2.3,0l0.4,0.5c0.6,0.6,0.6,1.7,0,2.3C266.3,108.3,265.9,108.4,265.5,108.4z M107.1,103.8
		c-0.4,0-0.9-0.2-1.2-0.5c-0.6-0.7-0.6-1.7,0.1-2.3l0.5-0.4c0.6-0.6,1.7-0.6,2.3,0.1c0.6,0.7,0.6,1.7-0.1,2.3l-0.5,0.4
		C107.9,103.7,107.5,103.8,107.1,103.8z M259.2,102.4c-0.4,0-0.8-0.1-1.1-0.4l-0.5-0.4c-0.7-0.6-0.7-1.6-0.2-2.3
		c0.6-0.7,1.6-0.7,2.3-0.1l0.5,0.4c0.7,0.6,0.7,1.6,0.1,2.3C260.1,102.2,259.6,102.4,259.2,102.4z M113.7,98.1c-0.5,0-1-0.2-1.3-0.6
		c-0.6-0.7-0.4-1.7,0.3-2.3l0.5-0.4c0.7-0.6,1.7-0.4,2.3,0.3c0.6,0.7,0.4,1.7-0.3,2.3l-0.5,0.4C114.4,98,114.1,98.1,113.7,98.1z
		 M252.4,96.8c-0.3,0-0.7-0.1-1-0.3l-0.5-0.4c-0.7-0.5-0.9-1.6-0.3-2.3c0.5-0.7,1.6-0.9,2.3-0.3l0.5,0.4c0.7,0.5,0.9,1.6,0.3,2.3
		C253.4,96.6,252.9,96.8,252.4,96.8z M120.8,92.9c-0.5,0-1-0.3-1.3-0.7c-0.5-0.7-0.3-1.8,0.4-2.2l0.5-0.4c0.8-0.5,1.8-0.3,2.2,0.4
		c0.5,0.7,0.3,1.7-0.4,2.2l-0.5,0.4C121.4,92.9,121.1,92.9,120.8,92.9z M245.3,91.8c-0.3,0-0.6-0.1-0.9-0.3l-0.5-0.3
		c-0.8-0.5-1-1.5-0.5-2.2c0.5-0.8,1.5-1,2.2-0.5l0.6,0.4c0.8,0.5,1,1.5,0.5,2.2C246.3,91.5,245.8,91.8,245.3,91.8z M128.2,88.3
		c-0.6,0-1.1-0.3-1.4-0.8c-0.4-0.8-0.2-1.8,0.6-2.2L128,85c0.8-0.4,1.8-0.1,2.2,0.6c0.4,0.8,0.2,1.8-0.6,2.2l-0.6,0.3
		C128.7,88.3,128.5,88.3,128.2,88.3z M237.8,87.3c-0.3,0-0.5-0.1-0.8-0.2l-0.6-0.3c-0.8-0.4-1.1-1.4-0.7-2.2
		c0.4-0.8,1.4-1.1,2.2-0.7l0.6,0.3c0.8,0.4,1.1,1.4,0.7,2.2C238.9,87,238.3,87.3,237.8,87.3z M136,84.3c-0.6,0-1.2-0.3-1.5-0.9
		c-0.4-0.8,0-1.8,0.8-2.1l0.6-0.3c0.8-0.4,1.8,0,2.1,0.8c0.4,0.8,0,1.8-0.8,2.1l-0.6,0.3C136.4,84.3,136.2,84.3,136,84.3z
		 M229.9,83.4c-0.2,0-0.5,0-0.7-0.1l-0.6-0.3c-0.8-0.4-1.2-1.3-0.8-2.1c0.4-0.8,1.3-1.2,2.1-0.8l0.6,0.3c0.8,0.4,1.2,1.3,0.8,2.1
		C231.1,83.1,230.5,83.4,229.9,83.4z M144,80.9c-0.7,0-1.3-0.4-1.5-1c-0.3-0.8,0.1-1.8,0.9-2.1l0.6-0.2c0.8-0.3,1.8,0.1,2.1,1
		c0.3,0.8-0.1,1.8-1,2.1l-0.6,0.2C144.4,80.9,144.2,80.9,144,80.9z M221.8,80.2c-0.2,0-0.4,0-0.5-0.1l-0.6-0.2
		c-0.8-0.3-1.3-1.2-1-2.1c0.3-0.8,1.2-1.3,2.1-1l0.6,0.2c0.8,0.3,1.3,1.2,1,2.1C223.1,79.8,222.5,80.2,221.8,80.2z M152.3,78.2
		c-0.7,0-1.3-0.5-1.5-1.2c-0.3-0.9,0.2-1.8,1.1-2l0.6-0.2c0.9-0.3,1.8,0.2,2,1.1c0.3,0.9-0.3,1.8-1.1,2l-0.6,0.2
		C152.6,78.1,152.5,78.2,152.3,78.2z M213.5,77.5c-0.1,0-0.3,0-0.4,0l-0.6-0.2c-0.9-0.2-1.4-1.1-1.2-2c0.2-0.9,1.1-1.4,2-1.2
		l0.6,0.2c0.9,0.2,1.4,1.1,1.2,2C214.8,77.1,214.2,77.5,213.5,77.5z M160.8,76c-0.7,0-1.4-0.5-1.6-1.3c-0.2-0.9,0.4-1.7,1.3-1.9
		l0.6-0.1c0.9-0.2,1.7,0.4,1.9,1.3c0.2,0.9-0.4,1.7-1.3,1.9l-0.6,0.1C161,76,160.9,76,160.8,76z M204.9,75.6c-0.1,0-0.2,0-0.3,0
		l-0.6-0.1c-0.9-0.2-1.5-1-1.3-1.9c0.2-0.9,1-1.5,1.9-1.3l0.6,0.1c0.9,0.2,1.5,1,1.3,1.9C206.4,75,205.7,75.6,204.9,75.6z
		 M169.4,74.6c-0.8,0-1.5-0.6-1.6-1.4c-0.1-0.9,0.5-1.7,1.4-1.8l0.7-0.1c0.9-0.1,1.7,0.5,1.8,1.4c0.1,0.9-0.5,1.7-1.4,1.8l-0.6,0.1
		C169.6,74.5,169.5,74.6,169.4,74.6z M196.3,74.3c-0.1,0-0.1,0-0.2,0l-0.6-0.1c-0.9-0.1-1.5-0.9-1.5-1.8c0.1-0.9,0.9-1.5,1.8-1.4
		l0.7,0.1c0.9,0.1,1.5,0.9,1.4,1.8C197.8,73.7,197.1,74.3,196.3,74.3z M178.1,73.8c-0.9,0-1.6-0.7-1.6-1.5c-0.1-0.9,0.6-1.7,1.5-1.7
		l0.6,0c0.9,0,1.6,0.6,1.7,1.5c0,0.9-0.6,1.6-1.5,1.7L178.1,73.8C178.2,73.8,178.2,73.8,178.1,73.8z M187.5,73.7
		C187.5,73.7,187.5,73.7,187.5,73.7l-0.7,0c-0.9,0-1.6-0.8-1.6-1.7c0-0.9,0.7-1.6,1.6-1.6c0,0,0,0,0,0l0.6,0c0.9,0,1.6,0.8,1.6,1.7
		C189.1,73,188.4,73.7,187.5,73.7z"/>
	<polygon class="st1" points="39.5,137.8 57.8,128.1 57.8,128.1 67.8,146.9 71.1,136.2 61.1,117.4 61.1,117.4 42.8,127.2 	"/>
	<polygon class="st1" points="33.5,163.7 51.5,153.4 51.5,153.4 62.1,171.8 65,161 54.4,142.6 54.4,142.6 36.4,153 	"/>
	<polygon class="st1" points="31.1,193.2 46.6,179.3 46.6,179.3 60.8,195.1 61.4,184 47.1,168.2 47.1,168.2 31.7,182.1 	"/>
	<polygon class="st1" points="35.9,222 49.3,206.1 49.3,206.1 65.6,219.7 64.6,208.6 48.3,195 48.3,195 35,210.9 	"/>
	<polygon class="st1" points="46.2,251.7 57.3,234.1 57.3,234.1 75.3,245.4 72.8,234.5 54.7,223.2 54.7,223.2 43.7,240.8 	"/>
	<polygon class="st1" points="64,280.9 68.3,260.6 68.3,260.6 89.1,265 83.1,255.6 62.3,251.2 62.3,251.2 57.9,271.5 	"/>
	<polygon class="st1" points="88,303.4 86.5,282.6 86.5,282.6 107.7,281.2 99.3,273.8 78.1,275.3 78.1,275.3 79.6,296 	"/>
	<polygon class="st1" points="112.3,319.2 107.3,299 107.3,299 128,293.9 118.4,288.2 97.8,293.3 97.8,293.3 102.8,313.5 	"/>
	<polygon class="st1" points="141.5,331.2 131.8,312.9 131.8,312.9 150.5,302.9 139.9,299.6 121.1,309.6 121.1,309.6 130.8,328 	"/>
	<polygon class="st1" points="170,336.7 157.8,319.9 157.8,319.9 175,307.4 164,305.6 146.8,318.1 146.8,318.1 159,334.9 	"/>
	<polygon class="st1" points="199.5,336.9 185.1,322 185.1,322 200.4,307.2 189.3,307 173.9,321.8 173.9,321.8 188.4,336.7 	"/>
	<polygon class="st1" points="229.5,331.5 211.9,320.5 211.9,320.5 223.2,302.5 212.3,305 201,323 201,323 218.7,334 	"/>
	<polygon class="st1" points="255.2,319.6 236,311.8 236,311.8 243.9,292.1 233.7,296.5 225.7,316.2 225.7,316.2 245,324 	"/>
	<polygon class="st1" points="280.1,304 259.6,300.4 259.6,300.4 263.3,279.5 254.2,285.9 250.5,306.8 250.5,306.8 270.9,310.4 	"/>
	<polygon class="st1" points="299.8,283 279,283.7 279,283.7 278.3,262.5 270.7,270.6 271.4,291.9 271.4,291.9 292.2,291.2 	"/>
	<polygon class="st1" points="316.5,259.3 296.3,264.3 296.3,264.3 291.2,243.6 285.5,253.2 290.6,273.9 290.6,273.9 310.8,268.8 	
		"/>
	<polygon class="st1" points="328.2,233.4 309.5,242.5 309.5,242.5 300.2,223.4 296.5,234 305.9,253.1 305.9,253.1 324.5,244 	"/>
	<polygon class="st1" points="333.6,206.3 316.8,218.5 316.8,218.5 304.3,201.3 302.5,212.3 315,229.5 315,229.5 331.9,217.3 	"/>
	<polygon class="st1" points="335.6,177.1 320.7,191.6 320.7,191.6 305.9,176.2 305.7,187.4 320.5,202.7 320.5,202.7 335.4,188.3 	
		"/>
	<polygon class="st1" points="329.8,146.2 318.1,163.4 318.1,163.4 300.5,151.5 302.6,162.5 320.3,174.4 320.3,174.4 331.9,157.2 	
		"/>
	<polygon class="st1" points="318.8,117.4 310.4,136.4 310.4,136.4 291,127.7 295,138.1 314.4,146.8 314.4,146.8 322.8,127.8 	"/>
	<polygon class="st1" points="302.6,89.7 299,110.1 299,110.1 278,106.4 284.4,115.5 305.4,119.2 305.4,119.2 309,98.8 	"/>
	<polygon class="st1" points="279.2,67.5 280.6,88.2 280.6,88.2 259.4,89.7 267.8,97 289,95.5 289,95.5 287.6,74.8 	"/>
	<polygon class="st1" points="254.8,51.7 259.8,71.8 259.8,71.8 239.2,77 248.7,82.7 269.4,77.5 269.4,77.5 264.3,57.4 	"/>
	<polygon class="st1" points="225.6,39.6 235.4,58 235.4,58 216.6,68 227.3,71.2 246.1,61.2 246.1,61.2 236.3,42.9 	"/>
	<polygon class="st1" points="197.1,34.2 209.3,51 209.3,51 192.1,63.5 203.1,65.2 220.3,52.7 220.3,52.7 208.1,35.9 	"/>
	<polygon class="st1" points="167.6,33.9 182,48.9 182,48.9 166.7,63.7 177.9,63.8 193.2,49.1 193.2,49.1 178.7,34.1 	"/>
	<polygon class="st1" points="137.6,39.3 155.2,50.3 155.2,50.3 144,68.4 154.8,65.9 166.1,47.8 166.1,47.8 148.5,36.8 	"/>
	<polygon class="st1" points="111.9,51.2 131.2,59 131.2,59 123.2,78.7 133.5,74.4 141.4,54.6 141.4,54.6 122.2,46.9 	"/>
	<polygon class="st1" points="87.1,66.8 107.5,70.4 107.5,70.4 103.8,91.4 113,85 116.7,64 116.7,64 96.2,60.4 	"/>
	<polygon class="st1" points="67.3,87.8 88.1,87.1 88.1,87.1 88.8,108.4 96.4,100.2 95.7,78.9 95.7,78.9 74.9,79.7 	"/>
	<polygon class="st1" points="50.6,111.6 70.8,106.6 70.8,106.6 75.9,127.2 81.7,117.6 76.5,97 76.5,97 56.4,102 	"/>
	<g>
		<path class="st1" d="M122.4,123.5c0-3.6,2.5-6.1,6.1-6.1h12.2c11.4,0,17.6,6,17.6,16.8v9.1c0,6.1-3,10.7-6.8,13.1
			c5.4,1.8,8.9,7.2,8.9,14.4v9.4c0,10.4-7.1,17.7-18.6,17.7h-13.2c-3.6,0-6.1-2.5-6.1-6.1V123.5z M146.2,135.2
			c0-4.9-1.8-7.1-6.8-7.1h-4.9v23.2h5.4c3.9,0,6.3-2.5,6.3-6.8V135.2z M148.2,169.9c0-5.2-2.6-7.9-7.5-7.9h-6.3v25.2h6
			c5.4,0,7.8-2.8,7.8-7.8V169.9z"/>
		<path class="st1" d="M206.7,180.3c0,12.3-7.4,19.2-19,19.2c-11.6,0-19-6.9-19-19.2v-58c0-3.6,2.5-6.1,6.1-6.1
			c3.6,0,6.1,2.5,6.1,6.1v59.6c0,4.4,2.3,7,6.8,7c4.5,0,6.8-2.6,6.8-7v-59.6c0-3.6,2.5-6.1,6.1-6.1c3.7,0,6.1,2.5,6.1,6.1V180.3z"/>
		<path class="st1" d="M240.4,120.7c0.8-2.6,2.6-4.5,6-4.5c3.6,0,6.1,2.3,6.1,5.5c0,1-0.2,1.8-0.5,2.4l-13.5,37.5v31.3
			c0,3.6-2.5,6.1-6.1,6.1c-3.6,0-6.1-2.5-6.1-6.1v-31.3l-13.5-37.5c-0.2-0.6-0.5-1.6-0.5-2.4c0-3.2,2.5-5.5,6.1-5.5
			c3.3,0,5.2,1.8,6,4.5l7.4,24.5c0.2,0.8,0.5,1.7,0.6,2.5c0.1-0.8,0.3-1.7,0.6-2.5L240.4,120.7z"/>
	</g>
	<g>
		<path class="st1" d="M121.1,240.9c0-2.2,1.2-3.3,3.2-3.3c2.1,0,3.3,1.3,3.3,3.3v1.6c0,2.9,0.9,5.1,3.8,5.1c2.7,0,3.8-2,3.8-5.1
			c0-4.9-2.7-7.4-5.7-10.2c-4.7-4.3-8.7-8.6-8.7-15.1c0-7.3,4-11,10.3-11c6,0,10,3.9,10,10.2v2.3c0,2-1.3,3.2-3.3,3.2
			c-1.9,0-3.2-1.2-3.2-3.2v-2.1c0-2.8-1.2-4.5-3.5-4.5c-2.5,0-3.5,1.8-3.5,4.6c0,4.2,2.3,6.8,5.3,9.6c3.7,3.5,9.1,8.4,9.1,15.7
			c0,6.8-4.2,11.6-10.7,11.6c-6.4,0-10.2-4.5-10.2-10.6V240.9z"/>
		<path class="st1" d="M144.9,216.9c0-6.6,4.2-10.9,10.8-10.9c6.6,0,10.8,4.3,10.8,10.9v25.6c0,6.6-4.2,10.9-10.8,10.9
			c-6.6,0-10.8-4.3-10.8-10.9V216.9z M159.6,215.9c0-2.3-1.5-4-3.9-4c-2.4,0-3.9,1.6-3.9,4v27.6c0,2.3,1.5,4,3.9,4
			c2.4,0,3.9-1.6,3.9-4V215.9z"/>
		<path class="st1" d="M191.3,217v3.4c0,2-1.3,3.3-3.3,3.3c-2,0-3.2-1.3-3.2-3.3v-4.6c0-2.7-1.4-4-3.7-4c-2.3,0-3.6,1.3-3.6,4v27.6
			c0,2.7,1.4,4,3.6,4c2.3,0,3.7-1.3,3.7-4v-4.6c0-2,1.2-3.3,3.2-3.3c2,0,3.3,1.3,3.3,3.3v3.4c0,6.6-3.6,11-10.3,11
			c-6.8,0-10.5-4.2-10.5-11V217c0-6.8,3.6-11,10.5-11C187.7,206,191.3,210.4,191.3,217z"/>
		<path class="st1" d="M195.7,209.7c0-2,1.4-3.4,3.4-3.4c2,0,3.4,1.4,3.4,3.4v39.9c0,2-1.4,3.4-3.4,3.4c-2.1,0-3.4-1.4-3.4-3.4
			V209.7z"/>
		<path class="st1" d="M229,248.9c0.5,2.7-1.4,4.2-3.3,4.2c-1.6,0-3.1-1-3.4-3.2l-1.1-7.9h-6.8l-1,7.9c-0.3,2.2-1.8,3.2-3.4,3.2
			c-1.9,0-3.8-1.5-3.2-4.2l7.5-39.4c0.5-2.2,1.6-3.2,3.6-3.2c2.1,0,3.2,1,3.6,3.2L229,248.9z M215.3,235.9h5.2l-2.3-17.4
			c-0.1-0.6-0.2-1.4-0.3-2.2c-0.1,0.8-0.2,1.7-0.3,2.2L215.3,235.9z"/>
		<path class="st1" d="M233.1,209.7c0-2,1.4-3.4,3.4-3.4c2,0,3.4,1.4,3.4,3.4v36.6h8.4c1.8,0,3.1,1.3,3.1,3.1s-1.3,3.1-3.1,3.1
			h-11.9c-2,0-3.4-1.4-3.4-3.4V209.7z"/>
	</g>
	<g>
		<path class="st1" d="M254.4,208.8v9.9c0,0.5-0.4,0.9-0.9,0.9c-0.6,0-0.9-0.4-0.9-0.9v-9.9h-1.3c-0.5,0-0.8-0.3-0.8-0.8
			c0-0.5,0.3-0.8,0.8-0.8h4.5c0.5,0,0.8,0.3,0.8,0.8c0,0.5-0.3,0.8-0.8,0.8H254.4z"/>
		<path class="st1" d="M262.6,207.7c0.1-0.4,0.3-0.7,0.8-0.7c0.5,0,0.8,0.3,0.8,0.8v10.9c0,0.5-0.3,0.9-0.8,0.9
			c-0.5,0-0.8-0.4-0.8-0.9v-6l-0.9,2.6c-0.1,0.4-0.5,0.7-0.9,0.7c-0.4,0-0.7-0.2-0.9-0.7l-0.9-2.6v6c0,0.5-0.4,0.9-0.8,0.9
			c-0.5,0-0.8-0.4-0.8-0.9v-10.9c0-0.5,0.3-0.8,0.8-0.8c0.5,0,0.7,0.3,0.8,0.7l1.8,6.2L262.6,207.7z"/>
	</g>
	<polygon class="st1" points="187.4,285.2 187.2,292.9 188,292.9 188,284.9 195.3,285.7 194.6,283.4 201.3,277.2 199.7,276.4 
		201.3,271.2 196.6,271.9 196.1,270 192.4,273.9 191.8,273.3 193,265.1 191,266.5 190.6,266.5 187.6,261.4 185.2,266.5 184.6,266.5 
		182.4,265.2 183.7,272.4 183.7,273.1 183.4,273.4 183,273.6 179.3,270.1 179.1,271.8 173.9,271.2 175.5,276 173.9,277.1 
		180.9,283.2 180,285.8 186,285.2 	"/>
</g>
<g id="Layer_2">
</g>
</svg>
