<?xml version="1.0" encoding="utf-8"?>
<!-- Generator: Adobe Illustrator 23.0.1, SVG Export Plug-In . SVG Version: 6.00 Build 0)  -->
<svg version="1.1" id="Layer_1" xmlns="http://www.w3.org/2000/svg" xmlns:xlink="http://www.w3.org/1999/xlink" x="0px" y="0px"
	 viewBox="0 0 102.2 102.2" style="enable-background:new 0 0 102.2 102.2;" xml:space="preserve">
<style type="text/css">
	.st0{fill:#3D3935;}
</style>
<path class="st0" d="M94.1,50.8c-1.1,0-3,0.8-4.6,1.6c-2.1,0.9-4.3,1.9-6.4,1.9c-2.1,0-4.3-1-6.4-1.9c-1.6-0.7-3.5-1.6-4.6-1.6
	s-3,0.8-4.6,1.6c-2.1,0.9-4.3,1.9-6.4,1.9c-2.1,0-4.2-0.9-6.4-1.9c-1.7-0.7-3.6-1.6-4.7-1.6s-3,0.8-4.7,1.6c-2.2,1-4.3,1.9-6.4,1.9
	c-2.1,0-4.3-1-6.4-1.9c-1.6-0.7-3.5-1.6-4.6-1.6c-1.1,0-3,0.8-4.6,1.6c-2.1,0.9-4.3,1.9-6.4,1.9c-2.1,0-4.3-1-6.4-1.9
	c-1.6-0.7-3.5-1.6-4.6-1.6v-6.5c2.5,0,5,1.1,7.3,2.1c1.3,0.6,3,1.4,3.7,1.4c0.7,0,2.5-0.8,3.7-1.4c2.2-1,4.8-2.1,7.3-2.1
	c2.5,0,5,1.1,7.3,2.1c1.3,0.6,3,1.4,3.7,1.4c0.7,0,2.5-0.8,3.8-1.4c2.3-1,4.8-2.1,7.3-2.1c2.5,0,5.1,1.1,7.3,2.1
	c1.3,0.6,3.1,1.4,3.8,1.4c0.7,0,2.5-0.8,3.7-1.4c2.2-1,4.8-2.1,7.3-2.1s5,1.1,7.3,2.1c1.3,0.6,3,1.4,3.7,1.4c0.7,0,2.5-0.8,3.7-1.4
	c2.2-1,4.8-2.1,7.3-2.1V50.8z M94.1,64.5c-1.1,0-3,0.8-4.6,1.6C87.4,67,85.2,68,83.1,68c-2.1,0-4.3-1-6.4-1.9
	c-1.6-0.7-3.5-1.6-4.6-1.6s-3,0.8-4.6,1.6C65.3,67,63.2,68,61,68c-2.1,0-4.2-0.9-6.4-1.9c-1.7-0.7-3.6-1.6-4.7-1.6s-3,0.8-4.7,1.6
	c-2.2,1-4.3,1.9-6.4,1.9c-2.1,0-4.3-1-6.4-1.9c-1.6-0.7-3.5-1.6-4.6-1.6c-1.1,0-3,0.8-4.6,1.6C20.9,67,18.8,68,16.7,68
	c-2.1,0-4.3-1-6.4-1.9c-1.6-0.7-3.5-1.6-4.6-1.6v-6.5c2.5,0,5,1.1,7.3,2.1c1.3,0.6,3,1.4,3.7,1.4c0.7,0,2.5-0.8,3.7-1.4
	c2.2-1,4.8-2.1,7.3-2.1c2.5,0,5,1.1,7.3,2.1c1.3,0.6,3,1.4,3.7,1.4c0.7,0,2.5-0.8,3.8-1.4c2.3-1,4.8-2.1,7.3-2.1
	c2.5,0,5.1,1.1,7.3,2.1c1.3,0.6,3.1,1.4,3.8,1.4c0.7,0,2.5-0.8,3.7-1.4c2.2-1,4.8-2.1,7.3-2.1s5,1.1,7.3,2.1c1.3,0.6,3,1.4,3.7,1.4
	c0.7,0,2.5-0.8,3.7-1.4c2.2-1,4.8-2.1,7.3-2.1V64.5z M90.2-0.2H12c-6.6,0-12,5.4-12,12V90c0,6.6,5.4,12,12,12h78.2
	c6.6,0,12-5.4,12-12V11.8C102.2,5.2,96.8-0.2,90.2-0.2"/>
</svg>
